^C:\USERS\JOHAN\GRAPHICSASSIGNMENTS2016\IMT2531-GRAPHICS_LABS_2016\LAB_06\UTIL.CPP
C:\USERS\JOHAN\GRAPHICSASSIGNMENTS2016\IMT2531-GRAPHICS_LABS_2016\LAB_06\UTIL.H
C:\PROGRAM FILES (X86)\WINDOWS KITS\8.1\INCLUDE\SHARED\SDKDDKVER.H
C:\USERS\JOHAN\DEV\SDL2-2.0.3\INCLUDE\SDL.H
C:\USERS\JOHAN\DEV\SDL2-2.0.3\INCLUDE\SDL_MAIN.H
C:\USERS\JOHAN\DEV\SDL2-2.0.3\INCLUDE\SDL_STDINC.H
C:\USERS\JOHAN\DEV\SDL2-2.0.3\INCLUDE\SDL_CONFIG.H
C:\USERS\JOHAN\DEV\SDL2-2.0.3\INCLUDE\SDL_PLATFORM.H
C:\PROGRAM FILES (X86)\WINDOWS KITS\8.1\INCLUDE\SHARED\WINAPIFAMILY.H
C:\USERS\JOHAN\DEV\SDL2-2.0.3\INCLUDE\BEGIN_CODE.H
C:\USERS\JOHAN\DEV\SDL2-2.0.3\INCLUDE\CLOSE_CODE.H
C:\USERS\JOHAN\DEV\SDL2-2.0.3\INCLUDE\SDL_CONFIG_WINDOWS.H
C:\PROGRAM FILES (X86)\WINDOWS KITS\10\INCLUDE\10.0.10150.0\UCRT\STDDEF.H
C:\PROGRAM FILES (X86)\WINDOWS KITS\10\INCLUDE\10.0.10150.0\UCRT\CORECRT.H
C:\PROGRAM FILES (X86)\MICROSOFT VISUAL STUDIO 14.0\VC\INCLUDE\VCRUNTIME.H
C:\PROGRAM FILES (X86)\MICROSOFT VISUAL STUDIO 14.0\VC\INCLUDE\SAL.H
C:\PROGRAM FILES (X86)\MICROSOFT VISUAL STUDIO 14.0\VC\INCLUDE\CONCURRENCYSAL.H
C:\PROGRAM FILES (X86)\MICROSOFT VISUAL STUDIO 14.0\VC\INCLUDE\VADEFS.H
C:\PROGRAM FILES (X86)\MICROSOFT VISUAL STUDIO 14.0\VC\INCLUDE\STDARG.H
C:\USERS\JOHAN\DEV\SDL2-2.0.3\INCLUDE\SDL_ASSERT.H
C:\USERS\JOHAN\DEV\SDL2-2.0.3\INCLUDE\SDL_ATOMIC.H
C:\USERS\JOHAN\DEV\SDL2-2.0.3\INCLUDE\SDL_AUDIO.H
C:\USERS\JOHAN\DEV\SDL2-2.0.3\INCLUDE\SDL_ERROR.H
C:\USERS\JOHAN\DEV\SDL2-2.0.3\INCLUDE\SDL_ENDIAN.H
C:\USERS\JOHAN\DEV\SDL2-2.0.3\INCLUDE\SDL_MUTEX.H
C:\USERS\JOHAN\DEV\SDL2-2.0.3\INCLUDE\SDL_THREAD.H
C:\PROGRAM FILES (X86)\WINDOWS KITS\10\INCLUDE\10.0.10150.0\UCRT\PROCESS.H
C:\PROGRAM FILES (X86)\WINDOWS KITS\10\INCLUDE\10.0.10150.0\UCRT\CORECRT_STARTUP.H
C:\PROGRAM FILES (X86)\WINDOWS KITS\10\INCLUDE\10.0.10150.0\UCRT\MATH.H
C:\PROGRAM FILES (X86)\MICROSOFT VISUAL STUDIO 14.0\VC\INCLUDE\VCRUNTIME_STARTUP.H
C:\PROGRAM FILES (X86)\MICROSOFT VISUAL STUDIO 14.0\VC\INCLUDE\STDBOOL.H
C:\PROGRAM FILES (X86)\WINDOWS KITS\10\INCLUDE\10.0.10150.0\UCRT\CORECRT_WPROCESS.H
C:\USERS\JOHAN\DEV\SDL2-2.0.3\INCLUDE\SDL_RWOPS.H
C:\USERS\JOHAN\DEV\SDL2-2.0.3\INCLUDE\SDL_CLIPBOARD.H
C:\USERS\JOHAN\DEV\SDL2-2.0.3\INCLUDE\SDL_CPUINFO.H
C:\PROGRAM FILES (X86)\MICROSOFT VISUAL STUDIO 14.0\VC\INCLUDE\INTRIN.H
C:\PROGRAM FILES (X86)\MICROSOFT VISUAL STUDIO 14.0\VC\INCLUDE\SETJMP.H
C:\PROGRAM FILES (X86)\MICROSOFT VISUAL STUDIO 14.0\VC\INCLUDE\IMMINTRIN.H
C:\PROGRAM FILES (X86)\MICROSOFT VISUAL STUDIO 14.0\VC\INCLUDE\WMMINTRIN.H
C:\PROGRAM FILES (X86)\MICROSOFT VISUAL STUDIO 14.0\VC\INCLUDE\NMMINTRIN.H
C:\PROGRAM FILES (X86)\MICROSOFT VISUAL STUDIO 14.0\VC\INCLUDE\SMMINTRIN.H
C:\PROGRAM FILES (X86)\MICROSOFT VISUAL STUDIO 14.0\VC\INCLUDE\TMMINTRIN.H
C:\PROGRAM FILES (X86)\MICROSOFT VISUAL STUDIO 14.0\VC\INCLUDE\PMMINTRIN.H
C:\PROGRAM FILES (X86)\MICROSOFT VISUAL STUDIO 14.0\VC\INCLUDE\EMMINTRIN.H
C:\PROGRAM FILES (X86)\MICROSOFT VISUAL STUDIO 14.0\VC\INCLUDE\XMMINTRIN.H
C:\PROGRAM FILES (X86)\MICROSOFT VISUAL STUDIO 14.0\VC\INCLUDE\MMINTRIN.H
C:\PROGRAM FILES (X86)\WINDOWS KITS\10\INCLUDE\10.0.10150.0\UCRT\MALLOC.H
C:\PROGRAM FILES (X86)\WINDOWS KITS\10\INCLUDE\10.0.10150.0\UCRT\CORECRT_MALLOC.H
C:\PROGRAM FILES (X86)\MICROSOFT VISUAL STUDIO 14.0\VC\INCLUDE\AMMINTRIN.H
C:\PROGRAM FILES (X86)\MICROSOFT VISUAL STUDIO 14.0\VC\INCLUDE\MM3DNOW.H
C:\USERS\JOHAN\DEV\SDL2-2.0.3\INCLUDE\SDL_EVENTS.H
C:\USERS\JOHAN\DEV\SDL2-2.0.3\INCLUDE\SDL_VIDEO.H
C:\USERS\JOHAN\DEV\SDL2-2.0.3\INCLUDE\SDL_PIXELS.H
C:\USERS\JOHAN\DEV\SDL2-2.0.3\INCLUDE\SDL_RECT.H
C:\USERS\JOHAN\DEV\SDL2-2.0.3\INCLUDE\SDL_SURFACE.H
C:\USERS\JOHAN\DEV\SDL2-2.0.3\INCLUDE\SDL_BLENDMODE.H
C:\USERS\JOHAN\DEV\SDL2-2.0.3\INCLUDE\SDL_KEYBOARD.H
C:\USERS\JOHAN\DEV\SDL2-2.0.3\INCLUDE\SDL_KEYCODE.H
C:\USERS\JOHAN\DEV\SDL2-2.0.3\INCLUDE\SDL_SCANCODE.H
C:\USERS\JOHAN\DEV\SDL2-2.0.3\INCLUDE\SDL_MOUSE.H
C:\USERS\JOHAN\DEV\SDL2-2.0.3\INCLUDE\SDL_JOYSTICK.H
C:\USERS\JOHAN\DEV\SDL2-2.0.3\INCLUDE\SDL_GAMECONTROLLER.H
C:\USERS\JOHAN\DEV\SDL2-2.0.3\INCLUDE\SDL_QUIT.H
C:\USERS\JOHAN\DEV\SDL2-2.0.3\INCLUDE\SDL_GESTURE.H
C:\USERS\JOHAN\DEV\SDL2-2.0.3\INCLUDE\SDL_TOUCH.H
C:\USERS\JOHAN\DEV\SDL2-2.0.3\INCLUDE\SDL_FILESYSTEM.H
C:\USERS\JOHAN\DEV\SDL2-2.0.3\INCLUDE\SDL_HAPTIC.H
C:\USERS\JOHAN\DEV\SDL2-2.0.3\INCLUDE\SDL_HINTS.H
C:\USERS\JOHAN\DEV\SDL2-2.0.3\INCLUDE\SDL_LOADSO.H
C:\USERS\JOHAN\DEV\SDL2-2.0.3\INCLUDE\SDL_LOG.H
C:\USERS\JOHAN\DEV\SDL2-2.0.3\INCLUDE\SDL_MESSAGEBOX.H
C:\USERS\JOHAN\DEV\SDL2-2.0.3\INCLUDE\SDL_POWER.H
C:\USERS\JOHAN\DEV\SDL2-2.0.3\INCLUDE\SDL_RENDER.H
C:\USERS\JOHAN\DEV\SDL2-2.0.3\INCLUDE\SDL_SYSTEM.H
C:\USERS\JOHAN\DEV\SDL2-2.0.3\INCLUDE\SDL_TIMER.H
C:\USERS\JOHAN\DEV\SDL2-2.0.3\INCLUDE\SDL_VERSION.H
C:\USERS\JOHAN\DEV\GLEW-1.13.0\INCLUDE\GL\GLEW.H
C:\PROGRAM FILES (X86)\WINDOWS KITS\8.1\INCLUDE\UM\GL\GLU.H
C:\PROGRAM FILES (X86)\WINDOWS KITS\8.1\INCLUDE\UM\GL\GL.H
C:\USERS\JOHAN\DEV\SDL2-2.0.3\INCLUDE\SDL_OPENGL.H
C:\PROGRAM FILES (X86)\WINDOWS KITS\8.1\INCLUDE\UM\WINDOWS.H
C:\PROGRAM FILES (X86)\MICROSOFT VISUAL STUDIO 14.0\VC\INCLUDE\EXCPT.H
C:\PROGRAM FILES (X86)\WINDOWS KITS\8.1\INCLUDE\SHARED\WINDEF.H
C:\PROGRAM FILES (X86)\WINDOWS KITS\8.1\INCLUDE\SHARED\MINWINDEF.H
C:\PROGRAM FILES (X86)\WINDOWS KITS\8.1\INCLUDE\SHARED\SPECSTRINGS.H
C:\PROGRAM FILES (X86)\WINDOWS KITS\8.1\INCLUDE\SHARED\SPECSTRINGS_STRICT.H
C:\PROGRAM FILES (X86)\WINDOWS KITS\8.1\INCLUDE\SHARED\SPECSTRINGS_UNDEF.H
C:\PROGRAM FILES (X86)\WINDOWS KITS\8.1\INCLUDE\SHARED\DRIVERSPECS.H
C:\PROGRAM FILES (X86)\WINDOWS KITS\8.1\INCLUDE\SHARED\SDV_DRIVERSPECS.H
C:\PROGRAM FILES (X86)\WINDOWS KITS\8.1\INCLUDE\UM\WINNT.H
C:\PROGRAM FILES (X86)\WINDOWS KITS\10\INCLUDE\10.0.10150.0\UCRT\CTYPE.H
C:\PROGRAM FILES (X86)\WINDOWS KITS\10\INCLUDE\10.0.10150.0\UCRT\CORECRT_WCTYPE.H
C:\PROGRAM FILES (X86)\WINDOWS KITS\8.1\INCLUDE\SHARED\KERNELSPECS.H
C:\PROGRAM FILES (X86)\WINDOWS KITS\8.1\INCLUDE\SHARED\BASETSD.H
C:\PROGRAM FILES (X86)\WINDOWS KITS\8.1\INCLUDE\SHARED\GUIDDEF.H
C:\PROGRAM FILES (X86)\WINDOWS KITS\10\INCLUDE\10.0.10150.0\UCRT\STRING.H
C:\PROGRAM FILES (X86)\WINDOWS KITS\10\INCLUDE\10.0.10150.0\UCRT\CORECRT_MEMORY.H
C:\PROGRAM FILES (X86)\WINDOWS KITS\10\INCLUDE\10.0.10150.0\UCRT\CORECRT_MEMCPY_S.H
C:\PROGRAM FILES (X86)\WINDOWS KITS\10\INCLUDE\10.0.10150.0\UCRT\ERRNO.H
C:\PROGRAM FILES (X86)\MICROSOFT VISUAL STUDIO 14.0\VC\INCLUDE\VCRUNTIME_STRING.H
C:\PROGRAM FILES (X86)\WINDOWS KITS\10\INCLUDE\10.0.10150.0\UCRT\CORECRT_WSTRING.H
C:\PROGRAM FILES (X86)\WINDOWS KITS\8.1\INCLUDE\SHARED\PSHPACK4.H
C:\PROGRAM FILES (X86)\WINDOWS KITS\8.1\INCLUDE\SHARED\POPPACK.H
C:\PROGRAM FILES (X86)\WINDOWS KITS\8.1\INCLUDE\SHARED\PSHPACK2.H
C:\PROGRAM FILES (X86)\WINDOWS KITS\8.1\INCLUDE\SHARED\PSHPACK8.H
C:\PROGRAM FILES (X86)\WINDOWS KITS\8.1\INCLUDE\SHARED\APISET.H
C:\PROGRAM FILES (X86)\WINDOWS KITS\8.1\INCLUDE\SHARED\KTMTYPES.H
C:\PROGRAM FILES (X86)\WINDOWS KITS\8.1\INCLUDE\UM\WINBASE.H
C:\PROGRAM FILES (X86)\WINDOWS KITS\8.1\INCLUDE\SHARED\APISETCCONV.H
C:\PROGRAM FILES (X86)\WINDOWS KITS\8.1\INCLUDE\UM\MINWINBASE.H
C:\PROGRAM FILES (X86)\WINDOWS KITS\8.1\INCLUDE\UM\PROCESSENV.H
C:\PROGRAM FILES (X86)\WINDOWS KITS\8.1\INCLUDE\UM\FILEAPI.H
C:\PROGRAM FILES (X86)\WINDOWS KITS\8.1\INCLUDE\UM\DEBUGAPI.H
C:\PROGRAM FILES (X86)\WINDOWS KITS\8.1\INCLUDE\UM\UTILAPISET.H
C:\PROGRAM FILES (X86)\WINDOWS KITS\8.1\INCLUDE\UM\HANDLEAPI.H
C:\PROGRAM FILES (X86)\WINDOWS KITS\8.1\INCLUDE\UM\ERRHANDLINGAPI.H
C:\PROGRAM FILES (X86)\WINDOWS KITS\8.1\INCLUDE\UM\FIBERSAPI.H
C:\PROGRAM FILES (X86)\WINDOWS KITS\8.1\INCLUDE\UM\NAMEDPIPEAPI.H
C:\PROGRAM FILES (X86)\WINDOWS KITS\8.1\INCLUDE\UM\PROFILEAPI.H
C:\PROGRAM FILES (X86)\WINDOWS KITS\8.1\INCLUDE\UM\HEAPAPI.H
C:\PROGRAM FILES (X86)\WINDOWS KITS\8.1\INCLUDE\UM\IOAPISET.H
C:\PROGRAM FILES (X86)\WINDOWS KITS\8.1\INCLUDE\UM\SYNCHAPI.H
C:\PROGRAM FILES (X86)\WINDOWS KITS\8.1\INCLUDE\UM\INTERLOCKEDAPI.H
C:\PROGRAM FILES (X86)\WINDOWS KITS\8.1\INCLUDE\UM\PROCESSTHREADSAPI.H
C:\PROGRAM FILES (X86)\WINDOWS KITS\8.1\INCLUDE\UM\SYSINFOAPI.H
C:\PROGRAM FILES (X86)\WINDOWS KITS\8.1\INCLUDE\UM\MEMORYAPI.H
C:\PROGRAM FILES (X86)\WINDOWS KITS\8.1\INCLUDE\UM\THREADPOOLLEGACYAPISET.H
C:\PROGRAM FILES (X86)\WINDOWS KITS\8.1\INCLUDE\UM\THREADPOOLAPISET.H
C:\PROGRAM FILES (X86)\WINDOWS KITS\8.1\INCLUDE\UM\BEMAPISET.H
C:\PROGRAM FILES (X86)\WINDOWS KITS\8.1\INCLUDE\UM\JOBAPI.H
C:\PROGRAM FILES (X86)\WINDOWS KITS\8.1\INCLUDE\UM\WOW64APISET.H
C:\PROGRAM FILES (X86)\WINDOWS KITS\8.1\INCLUDE\UM\LIBLOADERAPI.H
C:\PROGRAM FILES (X86)\WINDOWS KITS\8.1\INCLUDE\UM\SECURITYBASEAPI.H
C:\PROGRAM FILES (X86)\WINDOWS KITS\8.1\INCLUDE\UM\NAMESPACEAPI.H
C:\PROGRAM FILES (X86)\WINDOWS KITS\8.1\INCLUDE\UM\SYSTEMTOPOLOGYAPI.H
C:\PROGRAM FILES (X86)\WINDOWS KITS\8.1\INCLUDE\UM\PROCESSTOPOLOGYAPI.H
C:\PROGRAM FILES (X86)\WINDOWS KITS\8.1\INCLUDE\UM\SECURITYAPPCONTAINER.H
C:\PROGRAM FILES (X86)\WINDOWS KITS\8.1\INCLUDE\UM\REALTIMEAPISET.H
C:\PROGRAM FILES (X86)\WINDOWS KITS\8.1\INCLUDE\SHARED\WINERROR.H
C:\PROGRAM FILES (X86)\WINDOWS KITS\8.1\INCLUDE\UM\TIMEZONEAPI.H
C:\PROGRAM FILES (X86)\WINDOWS KITS\8.1\INCLUDE\UM\WINGDI.H
C:\PROGRAM FILES (X86)\WINDOWS KITS\8.1\INCLUDE\SHARED\PSHPACK1.H
C:\PROGRAM FILES (X86)\WINDOWS KITS\8.1\INCLUDE\UM\WINUSER.H
C:\PROGRAM FILES (X86)\WINDOWS KITS\8.1\INCLUDE\SHARED\TVOUT.H
C:\PROGRAM FILES (X86)\WINDOWS KITS\8.1\INCLUDE\UM\WINNLS.H
C:\PROGRAM FILES (X86)\WINDOWS KITS\8.1\INCLUDE\UM\DATETIMEAPI.H
C:\PROGRAM FILES (X86)\WINDOWS KITS\8.1\INCLUDE\UM\STRINGAPISET.H
C:\PROGRAM FILES (X86)\WINDOWS KITS\8.1\INCLUDE\UM\WINCON.H
C:\PROGRAM FILES (X86)\WINDOWS KITS\8.1\INCLUDE\UM\CONSOLEAPI.H
C:\PROGRAM FILES (X86)\WINDOWS KITS\8.1\INCLUDE\UM\WINVER.H
C:\PROGRAM FILES (X86)\WINDOWS KITS\8.1\INCLUDE\UM\VERRSRC.H
C:\PROGRAM FILES (X86)\WINDOWS KITS\8.1\INCLUDE\UM\WINREG.H
C:\PROGRAM FILES (X86)\WINDOWS KITS\8.1\INCLUDE\UM\REASON.H
C:\PROGRAM FILES (X86)\WINDOWS KITS\8.1\INCLUDE\UM\WINNETWK.H
C:\PROGRAM FILES (X86)\WINDOWS KITS\8.1\INCLUDE\SHARED\WNNC.H
C:\PROGRAM FILES (X86)\WINDOWS KITS\8.1\INCLUDE\SHARED\STRALIGN.H
C:\PROGRAM FILES (X86)\WINDOWS KITS\8.1\INCLUDE\UM\WINSVC.H
C:\PROGRAM FILES (X86)\WINDOWS KITS\8.1\INCLUDE\UM\MCX.H
C:\PROGRAM FILES (X86)\WINDOWS KITS\8.1\INCLUDE\UM\IMM.H
C:\PROGRAM FILES (X86)\WINDOWS KITS\8.1\INCLUDE\UM\IME_CMODES.H
C:\USERS\JOHAN\GRAPHICSASSIGNMENTS2016\IMT2531-GRAPHICS_LABS_2016\LAB_06\SHADER.HPP
C:\USERS\JOHAN\GRAPHICSASSIGNMENTS2016\IMT2531-GRAPHICS_LABS_2016\LAB_06\GLOBALS.H
C:\USERS\JOHAN\DEV\GLM\GLM\GLM.HPP
C:\USERS\JOHAN\DEV\GLM\GLM\DETAIL\_FIXES.HPP
C:\PROGRAM FILES (X86)\MICROSOFT VISUAL STUDIO 14.0\VC\INCLUDE\CMATH
C:\PROGRAM FILES (X86)\MICROSOFT VISUAL STUDIO 14.0\VC\INCLUDE\YVALS.H
C:\PROGRAM FILES (X86)\MICROSOFT VISUAL STUDIO 14.0\VC\INCLUDE\XKEYCHECK.H
C:\PROGRAM FILES (X86)\MICROSOFT VISUAL STUDIO 14.0\VC\INCLUDE\CRTDEFS.H
C:\PROGRAM FILES (X86)\MICROSOFT VISUAL STUDIO 14.0\VC\INCLUDE\USE_ANSI.H
C:\PROGRAM FILES (X86)\MICROSOFT VISUAL STUDIO 14.0\VC\INCLUDE\XTGMATH.H
C:\PROGRAM FILES (X86)\MICROSOFT VISUAL STUDIO 14.0\VC\INCLUDE\XTR1COMMON
C:\PROGRAM FILES (X86)\MICROSOFT VISUAL STUDIO 14.0\VC\INCLUDE\CSTDLIB
C:\PROGRAM FILES (X86)\WINDOWS KITS\10\INCLUDE\10.0.10150.0\UCRT\STDLIB.H
C:\PROGRAM FILES (X86)\WINDOWS KITS\10\INCLUDE\10.0.10150.0\UCRT\CORECRT_SEARCH.H
C:\PROGRAM FILES (X86)\WINDOWS KITS\10\INCLUDE\10.0.10150.0\UCRT\CORECRT_WSTDLIB.H
C:\PROGRAM FILES (X86)\MICROSOFT VISUAL STUDIO 14.0\VC\INCLUDE\LIMITS.H
C:\PROGRAM FILES (X86)\MICROSOFT VISUAL STUDIO 14.0\VC\INCLUDE\CLIMITS
C:\PROGRAM FILES (X86)\MICROSOFT VISUAL STUDIO 14.0\VC\INCLUDE\CFLOAT
C:\PROGRAM FILES (X86)\WINDOWS KITS\10\INCLUDE\10.0.10150.0\UCRT\FLOAT.H
C:\PROGRAM FILES (X86)\MICROSOFT VISUAL STUDIO 14.0\VC\INCLUDE\LIMITS
C:\PROGRAM FILES (X86)\MICROSOFT VISUAL STUDIO 14.0\VC\INCLUDE\YMATH.H
C:\PROGRAM FILES (X86)\MICROSOFT VISUAL STUDIO 14.0\VC\INCLUDE\CWCHAR
C:\PROGRAM FILES (X86)\WINDOWS KITS\10\INCLUDE\10.0.10150.0\UCRT\WCHAR.H
C:\PROGRAM FILES (X86)\WINDOWS KITS\10\INCLUDE\10.0.10150.0\UCRT\CORECRT_WCONIO.H
C:\PROGRAM FILES (X86)\WINDOWS KITS\10\INCLUDE\10.0.10150.0\UCRT\CORECRT_STDIO_CONFIG.H
C:\PROGRAM FILES (X86)\WINDOWS KITS\10\INCLUDE\10.0.10150.0\UCRT\CORECRT_WDIRECT.H
C:\PROGRAM FILES (X86)\WINDOWS KITS\10\INCLUDE\10.0.10150.0\UCRT\CORECRT_WIO.H
C:\PROGRAM FILES (X86)\WINDOWS KITS\10\INCLUDE\10.0.10150.0\UCRT\CORECRT_SHARE.H
C:\PROGRAM FILES (X86)\WINDOWS KITS\10\INCLUDE\10.0.10150.0\UCRT\CORECRT_WSTDIO.H
C:\PROGRAM FILES (X86)\WINDOWS KITS\10\INCLUDE\10.0.10150.0\UCRT\CORECRT_WTIME.H
C:\PROGRAM FILES (X86)\WINDOWS KITS\10\INCLUDE\10.0.10150.0\UCRT\SYS\STAT.H
C:\PROGRAM FILES (X86)\WINDOWS KITS\10\INCLUDE\10.0.10150.0\UCRT\SYS\TYPES.H
C:\PROGRAM FILES (X86)\MICROSOFT VISUAL STUDIO 14.0\VC\INCLUDE\XSTDDEF
C:\PROGRAM FILES (X86)\MICROSOFT VISUAL STUDIO 14.0\VC\INCLUDE\CSTDDEF
C:\PROGRAM FILES (X86)\MICROSOFT VISUAL STUDIO 14.0\VC\INCLUDE\INITIALIZER_LIST
C:\PROGRAM FILES (X86)\MICROSOFT VISUAL STUDIO 14.0\VC\INCLUDE\CASSERT
C:\PROGRAM FILES (X86)\WINDOWS KITS\10\INCLUDE\10.0.10150.0\UCRT\ASSERT.H
C:\USERS\JOHAN\DEV\GLM\GLM\FWD.HPP
C:\USERS\JOHAN\DEV\GLM\GLM\DETAIL\TYPE_INT.HPP
C:\USERS\JOHAN\DEV\GLM\GLM\DETAIL\SETUP.HPP
C:\PROGRAM FILES (X86)\MICROSOFT VISUAL STUDIO 14.0\VC\INCLUDE\TYPE_TRAITS
C:\PROGRAM FILES (X86)\MICROSOFT VISUAL STUDIO 14.0\VC\INCLUDE\CSTDINT
C:\PROGRAM FILES (X86)\MICROSOFT VISUAL STUDIO 14.0\VC\INCLUDE\STDINT.H
C:\USERS\JOHAN\DEV\GLM\GLM\DETAIL\TYPE_FLOAT.HPP
C:\USERS\JOHAN\DEV\GLM\GLM\DETAIL\TYPE_VEC.HPP
C:\USERS\JOHAN\DEV\GLM\GLM\DETAIL\PRECISION.HPP
C:\USERS\JOHAN\DEV\GLM\GLM\DETAIL\TYPE_MAT.HPP
C:\USERS\JOHAN\DEV\GLM\GLM\VEC2.HPP
C:\USERS\JOHAN\DEV\GLM\GLM\DETAIL\TYPE_VEC2.HPP
C:\USERS\JOHAN\DEV\GLM\GLM\DETAIL\TYPE_VEC2.INL
C:\USERS\JOHAN\DEV\GLM\GLM\VEC3.HPP
C:\USERS\JOHAN\DEV\GLM\GLM\DETAIL\TYPE_VEC3.HPP
C:\USERS\JOHAN\DEV\GLM\GLM\DETAIL\TYPE_VEC3.INL
C:\USERS\JOHAN\DEV\GLM\GLM\VEC4.HPP
C:\USERS\JOHAN\DEV\GLM\GLM\DETAIL\TYPE_VEC4.HPP
C:\USERS\JOHAN\DEV\GLM\GLM\DETAIL\TYPE_VEC4.INL
C:\USERS\JOHAN\DEV\GLM\GLM\DETAIL\TYPE_VEC4_SSE2.INL
C:\USERS\JOHAN\DEV\GLM\GLM\MAT2X2.HPP
C:\USERS\JOHAN\DEV\GLM\GLM\DETAIL\TYPE_MAT2X2.HPP
C:\USERS\JOHAN\DEV\GLM\GLM\DETAIL\TYPE_MAT2X2.INL
C:\USERS\JOHAN\DEV\GLM\GLM\MAT2X3.HPP
C:\USERS\JOHAN\DEV\GLM\GLM\DETAIL\TYPE_MAT2X3.HPP
C:\USERS\JOHAN\DEV\GLM\GLM\DETAIL\TYPE_MAT2X3.INL
C:\USERS\JOHAN\DEV\GLM\GLM\MAT2X4.HPP
C:\USERS\JOHAN\DEV\GLM\GLM\DETAIL\TYPE_MAT2X4.HPP
C:\USERS\JOHAN\DEV\GLM\GLM\DETAIL\TYPE_MAT2X4.INL
C:\USERS\JOHAN\DEV\GLM\GLM\MAT3X2.HPP
C:\USERS\JOHAN\DEV\GLM\GLM\DETAIL\TYPE_MAT3X2.HPP
C:\USERS\JOHAN\DEV\GLM\GLM\DETAIL\TYPE_MAT3X2.INL
C:\USERS\JOHAN\DEV\GLM\GLM\MAT3X3.HPP
C:\USERS\JOHAN\DEV\GLM\GLM\DETAIL\TYPE_MAT3X3.HPP
C:\USERS\JOHAN\DEV\GLM\GLM\DETAIL\TYPE_MAT3X3.INL
C:\USERS\JOHAN\DEV\GLM\GLM\MAT3X4.HPP
C:\USERS\JOHAN\DEV\GLM\GLM\DETAIL\TYPE_MAT3X4.HPP
C:\USERS\JOHAN\DEV\GLM\GLM\DETAIL\TYPE_MAT3X4.INL
C:\USERS\JOHAN\DEV\GLM\GLM\MAT4X2.HPP
C:\USERS\JOHAN\DEV\GLM\GLM\DETAIL\TYPE_MAT4X2.HPP
C:\USERS\JOHAN\DEV\GLM\GLM\DETAIL\TYPE_MAT4X2.INL
C:\USERS\JOHAN\DEV\GLM\GLM\MAT4X3.HPP
C:\USERS\JOHAN\DEV\GLM\GLM\DETAIL\TYPE_MAT4X3.HPP
C:\USERS\JOHAN\DEV\GLM\GLM\DETAIL\TYPE_MAT4X3.INL
C:\USERS\JOHAN\DEV\GLM\GLM\MAT4X4.HPP
C:\USERS\JOHAN\DEV\GLM\GLM\DETAIL\TYPE_MAT4X4.HPP
C:\USERS\JOHAN\DEV\GLM\GLM\DETAIL\TYPE_MAT4X4.INL
C:\USERS\JOHAN\DEV\GLM\GLM\TRIGONOMETRIC.HPP
C:\USERS\JOHAN\DEV\GLM\GLM\DETAIL\FUNC_TRIGONOMETRIC.HPP
C:\USERS\JOHAN\DEV\GLM\GLM\DETAIL\FUNC_TRIGONOMETRIC.INL
C:\USERS\JOHAN\DEV\GLM\GLM\DETAIL\_VECTORIZE.HPP
C:\USERS\JOHAN\DEV\GLM\GLM\DETAIL\TYPE_VEC1.HPP
C:\USERS\JOHAN\DEV\GLM\GLM\DETAIL\TYPE_VEC1.INL
C:\USERS\JOHAN\DEV\GLM\GLM\EXPONENTIAL.HPP
C:\USERS\JOHAN\DEV\GLM\GLM\DETAIL\FUNC_EXPONENTIAL.HPP
C:\USERS\JOHAN\DEV\GLM\GLM\DETAIL\FUNC_EXPONENTIAL.INL
C:\USERS\JOHAN\DEV\GLM\GLM\DETAIL\FUNC_VECTOR_RELATIONAL.HPP
C:\USERS\JOHAN\DEV\GLM\GLM\DETAIL\FUNC_VECTOR_RELATIONAL.INL
C:\USERS\JOHAN\DEV\GLM\GLM\COMMON.HPP
C:\USERS\JOHAN\DEV\GLM\GLM\DETAIL\FUNC_COMMON.HPP
C:\USERS\JOHAN\DEV\GLM\GLM\DETAIL\FUNC_COMMON.INL
C:\USERS\JOHAN\DEV\GLM\GLM\PACKING.HPP
C:\USERS\JOHAN\DEV\GLM\GLM\DETAIL\FUNC_PACKING.HPP
C:\USERS\JOHAN\DEV\GLM\GLM\DETAIL\FUNC_PACKING.INL
C:\USERS\JOHAN\DEV\GLM\GLM\DETAIL\TYPE_HALF.HPP
C:\USERS\JOHAN\DEV\GLM\GLM\DETAIL\TYPE_HALF.INL
C:\USERS\JOHAN\DEV\GLM\GLM\GEOMETRIC.HPP
C:\USERS\JOHAN\DEV\GLM\GLM\DETAIL\FUNC_GEOMETRIC.HPP
C:\USERS\JOHAN\DEV\GLM\GLM\DETAIL\FUNC_GEOMETRIC.INL
C:\USERS\JOHAN\DEV\GLM\GLM\MATRIX.HPP
C:\USERS\JOHAN\DEV\GLM\GLM\DETAIL\FUNC_MATRIX.HPP
C:\USERS\JOHAN\DEV\GLM\GLM\DETAIL\FUNC_MATRIX.INL
C:\USERS\JOHAN\DEV\GLM\GLM\VECTOR_RELATIONAL.HPP
C:\USERS\JOHAN\DEV\GLM\GLM\INTEGER.HPP
C:\USERS\JOHAN\DEV\GLM\GLM\DETAIL\FUNC_INTEGER.HPP
C:\USERS\JOHAN\DEV\GLM\GLM\DETAIL\FUNC_INTEGER.INL
C:\USERS\JOHAN\DEV\GLM\GLM\GTC\CONSTANTS.HPP
C:\USERS\JOHAN\DEV\GLM\GLM\GTC\CONSTANTS.INL
C:\USERS\JOHAN\DEV\GLM\GLM\GTC\MATRIX_TRANSFORM.HPP
C:\USERS\JOHAN\DEV\GLM\GLM\GTC\MATRIX_TRANSFORM.INL
C:\USERS\JOHAN\DEV\GLM\GLM\GTC\TYPE_PTR.HPP
C:\USERS\JOHAN\DEV\GLM\GLM\GTC\QUATERNION.HPP
C:\USERS\JOHAN\DEV\GLM\GLM\GTC\QUATERNION.INL
C:\PROGRAM FILES (X86)\MICROSOFT VISUAL STUDIO 14.0\VC\INCLUDE\CSTRING
C:\USERS\JOHAN\DEV\GLM\GLM\GTC\TYPE_PTR.INL
C:\PROGRAM FILES (X86)\WINDOWS KITS\10\INCLUDE\10.0.10150.0\UCRT\STDIO.H
C:\WINDOWS\GLOBALIZATION\SORTING\SORTDEFAULT.NLS
C:\PROGRAM FILES (X86)\MICROSOFT VISUAL STUDIO 14.0\VC\BIN\1033\CLUI.DLL
C:\WINDOWS\SYSTEM32\TZRES.DLL
^C:\USERS\JOHAN\GRAPHICSASSIGNMENTS2016\IMT2531-GRAPHICS_LABS_2016\LAB_06\SHADER.CPP
C:\PROGRAM FILES (X86)\WINDOWS KITS\10\INCLUDE\10.0.10150.0\UCRT\STDIO.H
C:\PROGRAM FILES (X86)\WINDOWS KITS\10\INCLUDE\10.0.10150.0\UCRT\CORECRT.H
C:\PROGRAM FILES (X86)\MICROSOFT VISUAL STUDIO 14.0\VC\INCLUDE\VCRUNTIME.H
C:\PROGRAM FILES (X86)\MICROSOFT VISUAL STUDIO 14.0\VC\INCLUDE\SAL.H
C:\PROGRAM FILES (X86)\MICROSOFT VISUAL STUDIO 14.0\VC\INCLUDE\CONCURRENCYSAL.H
C:\PROGRAM FILES (X86)\MICROSOFT VISUAL STUDIO 14.0\VC\INCLUDE\VADEFS.H
C:\PROGRAM FILES (X86)\WINDOWS KITS\10\INCLUDE\10.0.10150.0\UCRT\CORECRT_WSTDIO.H
C:\PROGRAM FILES (X86)\WINDOWS KITS\10\INCLUDE\10.0.10150.0\UCRT\CORECRT_STDIO_CONFIG.H
C:\PROGRAM FILES (X86)\MICROSOFT VISUAL STUDIO 14.0\VC\INCLUDE\STRING
C:\PROGRAM FILES (X86)\MICROSOFT VISUAL STUDIO 14.0\VC\INCLUDE\ISTREAM
C:\PROGRAM FILES (X86)\MICROSOFT VISUAL STUDIO 14.0\VC\INCLUDE\OSTREAM
C:\PROGRAM FILES (X86)\MICROSOFT VISUAL STUDIO 14.0\VC\INCLUDE\IOS
C:\PROGRAM FILES (X86)\MICROSOFT VISUAL STUDIO 14.0\VC\INCLUDE\XLOCNUM
C:\PROGRAM FILES (X86)\MICROSOFT VISUAL STUDIO 14.0\VC\INCLUDE\CLIMITS
C:\PROGRAM FILES (X86)\MICROSOFT VISUAL STUDIO 14.0\VC\INCLUDE\YVALS.H
C:\PROGRAM FILES (X86)\MICROSOFT VISUAL STUDIO 14.0\VC\INCLUDE\XKEYCHECK.H
C:\PROGRAM FILES (X86)\MICROSOFT VISUAL STUDIO 14.0\VC\INCLUDE\CRTDEFS.H
C:\PROGRAM FILES (X86)\MICROSOFT VISUAL STUDIO 14.0\VC\INCLUDE\USE_ANSI.H
C:\PROGRAM FILES (X86)\MICROSOFT VISUAL STUDIO 14.0\VC\INCLUDE\LIMITS.H
C:\PROGRAM FILES (X86)\MICROSOFT VISUAL STUDIO 14.0\VC\INCLUDE\CMATH
C:\PROGRAM FILES (X86)\WINDOWS KITS\10\INCLUDE\10.0.10150.0\UCRT\MATH.H
C:\PROGRAM FILES (X86)\MICROSOFT VISUAL STUDIO 14.0\VC\INCLUDE\XTGMATH.H
C:\PROGRAM FILES (X86)\MICROSOFT VISUAL STUDIO 14.0\VC\INCLUDE\XTR1COMMON
C:\PROGRAM FILES (X86)\MICROSOFT VISUAL STUDIO 14.0\VC\INCLUDE\CSTDLIB
C:\PROGRAM FILES (X86)\WINDOWS KITS\10\INCLUDE\10.0.10150.0\UCRT\STDLIB.H
C:\PROGRAM FILES (X86)\WINDOWS KITS\10\INCLUDE\10.0.10150.0\UCRT\CORECRT_MALLOC.H
C:\PROGRAM FILES (X86)\WINDOWS KITS\10\INCLUDE\10.0.10150.0\UCRT\CORECRT_SEARCH.H
C:\PROGRAM FILES (X86)\WINDOWS KITS\10\INCLUDE\10.0.10150.0\UCRT\STDDEF.H
C:\PROGRAM FILES (X86)\WINDOWS KITS\10\INCLUDE\10.0.10150.0\UCRT\CORECRT_WSTDLIB.H
C:\PROGRAM FILES (X86)\MICROSOFT VISUAL STUDIO 14.0\VC\INCLUDE\CSTDIO
C:\PROGRAM FILES (X86)\MICROSOFT VISUAL STUDIO 14.0\VC\INCLUDE\STREAMBUF
C:\PROGRAM FILES (X86)\MICROSOFT VISUAL STUDIO 14.0\VC\INCLUDE\XIOSBASE
C:\PROGRAM FILES (X86)\MICROSOFT VISUAL STUDIO 14.0\VC\INCLUDE\XLOCALE
C:\PROGRAM FILES (X86)\MICROSOFT VISUAL STUDIO 14.0\VC\INCLUDE\CSTRING
C:\PROGRAM FILES (X86)\WINDOWS KITS\10\INCLUDE\10.0.10150.0\UCRT\STRING.H
C:\PROGRAM FILES (X86)\WINDOWS KITS\10\INCLUDE\10.0.10150.0\UCRT\CORECRT_MEMORY.H
C:\PROGRAM FILES (X86)\WINDOWS KITS\10\INCLUDE\10.0.10150.0\UCRT\CORECRT_MEMCPY_S.H
C:\PROGRAM FILES (X86)\WINDOWS KITS\10\INCLUDE\10.0.10150.0\UCRT\ERRNO.H
C:\PROGRAM FILES (X86)\MICROSOFT VISUAL STUDIO 14.0\VC\INCLUDE\VCRUNTIME_STRING.H
C:\PROGRAM FILES (X86)\WINDOWS KITS\10\INCLUDE\10.0.10150.0\UCRT\CORECRT_WSTRING.H
C:\PROGRAM FILES (X86)\MICROSOFT VISUAL STUDIO 14.0\VC\INCLUDE\STDEXCEPT
C:\PROGRAM FILES (X86)\MICROSOFT VISUAL STUDIO 14.0\VC\INCLUDE\EXCEPTION
C:\PROGRAM FILES (X86)\MICROSOFT VISUAL STUDIO 14.0\VC\INCLUDE\TYPE_TRAITS
C:\PROGRAM FILES (X86)\MICROSOFT VISUAL STUDIO 14.0\VC\INCLUDE\XSTDDEF
C:\PROGRAM FILES (X86)\MICROSOFT VISUAL STUDIO 14.0\VC\INCLUDE\CSTDDEF
C:\PROGRAM FILES (X86)\MICROSOFT VISUAL STUDIO 14.0\VC\INCLUDE\INITIALIZER_LIST
C:\PROGRAM FILES (X86)\WINDOWS KITS\10\INCLUDE\10.0.10150.0\UCRT\MALLOC.H
C:\PROGRAM FILES (X86)\MICROSOFT VISUAL STUDIO 14.0\VC\INCLUDE\VCRUNTIME_EXCEPTION.H
C:\PROGRAM FILES (X86)\MICROSOFT VISUAL STUDIO 14.0\VC\INCLUDE\EH.H
C:\PROGRAM FILES (X86)\WINDOWS KITS\10\INCLUDE\10.0.10150.0\UCRT\CORECRT_TERMINATE.H
C:\PROGRAM FILES (X86)\MICROSOFT VISUAL STUDIO 14.0\VC\INCLUDE\XSTRING
C:\PROGRAM FILES (X86)\MICROSOFT VISUAL STUDIO 14.0\VC\INCLUDE\XMEMORY0
C:\PROGRAM FILES (X86)\MICROSOFT VISUAL STUDIO 14.0\VC\INCLUDE\CSTDINT
C:\PROGRAM FILES (X86)\MICROSOFT VISUAL STUDIO 14.0\VC\INCLUDE\STDINT.H
C:\PROGRAM FILES (X86)\MICROSOFT VISUAL STUDIO 14.0\VC\INCLUDE\LIMITS
C:\PROGRAM FILES (X86)\MICROSOFT VISUAL STUDIO 14.0\VC\INCLUDE\YMATH.H
C:\PROGRAM FILES (X86)\MICROSOFT VISUAL STUDIO 14.0\VC\INCLUDE\CFLOAT
C:\PROGRAM FILES (X86)\WINDOWS KITS\10\INCLUDE\10.0.10150.0\UCRT\FLOAT.H
C:\PROGRAM FILES (X86)\MICROSOFT VISUAL STUDIO 14.0\VC\INCLUDE\CWCHAR
C:\PROGRAM FILES (X86)\WINDOWS KITS\10\INCLUDE\10.0.10150.0\UCRT\WCHAR.H
C:\PROGRAM FILES (X86)\WINDOWS KITS\10\INCLUDE\10.0.10150.0\UCRT\CORECRT_WCONIO.H
C:\PROGRAM FILES (X86)\WINDOWS KITS\10\INCLUDE\10.0.10150.0\UCRT\CORECRT_WCTYPE.H
C:\PROGRAM FILES (X86)\WINDOWS KITS\10\INCLUDE\10.0.10150.0\UCRT\CORECRT_WDIRECT.H
C:\PROGRAM FILES (X86)\WINDOWS KITS\10\INCLUDE\10.0.10150.0\UCRT\CORECRT_WIO.H
C:\PROGRAM FILES (X86)\WINDOWS KITS\10\INCLUDE\10.0.10150.0\UCRT\CORECRT_SHARE.H
C:\PROGRAM FILES (X86)\WINDOWS KITS\10\INCLUDE\10.0.10150.0\UCRT\CORECRT_WPROCESS.H
C:\PROGRAM FILES (X86)\WINDOWS KITS\10\INCLUDE\10.0.10150.0\UCRT\CORECRT_WTIME.H
C:\PROGRAM FILES (X86)\WINDOWS KITS\10\INCLUDE\10.0.10150.0\UCRT\SYS\STAT.H
C:\PROGRAM FILES (X86)\WINDOWS KITS\10\INCLUDE\10.0.10150.0\UCRT\SYS\TYPES.H
C:\PROGRAM FILES (X86)\MICROSOFT VISUAL STUDIO 14.0\VC\INCLUDE\NEW
C:\PROGRAM FILES (X86)\MICROSOFT VISUAL STUDIO 14.0\VC\INCLUDE\VCRUNTIME_NEW.H
C:\PROGRAM FILES (X86)\MICROSOFT VISUAL STUDIO 14.0\VC\INCLUDE\XUTILITY
C:\PROGRAM FILES (X86)\MICROSOFT VISUAL STUDIO 14.0\VC\INCLUDE\UTILITY
C:\PROGRAM FILES (X86)\MICROSOFT VISUAL STUDIO 14.0\VC\INCLUDE\IOSFWD
C:\PROGRAM FILES (X86)\WINDOWS KITS\10\INCLUDE\10.0.10150.0\UCRT\CRTDBG.H
C:\PROGRAM FILES (X86)\MICROSOFT VISUAL STUDIO 14.0\VC\INCLUDE\VCRUNTIME_NEW_DEBUG.H
C:\PROGRAM FILES (X86)\MICROSOFT VISUAL STUDIO 14.0\VC\INCLUDE\XATOMIC0.H
C:\PROGRAM FILES (X86)\MICROSOFT VISUAL STUDIO 14.0\VC\INCLUDE\INTRIN.H
C:\PROGRAM FILES (X86)\MICROSOFT VISUAL STUDIO 14.0\VC\INCLUDE\SETJMP.H
C:\PROGRAM FILES (X86)\MICROSOFT VISUAL STUDIO 14.0\VC\INCLUDE\IMMINTRIN.H
C:\PROGRAM FILES (X86)\MICROSOFT VISUAL STUDIO 14.0\VC\INCLUDE\WMMINTRIN.H
C:\PROGRAM FILES (X86)\MICROSOFT VISUAL STUDIO 14.0\VC\INCLUDE\NMMINTRIN.H
C:\PROGRAM FILES (X86)\MICROSOFT VISUAL STUDIO 14.0\VC\INCLUDE\SMMINTRIN.H
C:\PROGRAM FILES (X86)\MICROSOFT VISUAL STUDIO 14.0\VC\INCLUDE\TMMINTRIN.H
C:\PROGRAM FILES (X86)\MICROSOFT VISUAL STUDIO 14.0\VC\INCLUDE\PMMINTRIN.H
C:\PROGRAM FILES (X86)\MICROSOFT VISUAL STUDIO 14.0\VC\INCLUDE\EMMINTRIN.H
C:\PROGRAM FILES (X86)\MICROSOFT VISUAL STUDIO 14.0\VC\INCLUDE\XMMINTRIN.H
C:\PROGRAM FILES (X86)\MICROSOFT VISUAL STUDIO 14.0\VC\INCLUDE\MMINTRIN.H
C:\PROGRAM FILES (X86)\MICROSOFT VISUAL STUDIO 14.0\VC\INCLUDE\AMMINTRIN.H
C:\PROGRAM FILES (X86)\MICROSOFT VISUAL STUDIO 14.0\VC\INCLUDE\MM3DNOW.H
C:\PROGRAM FILES (X86)\MICROSOFT VISUAL STUDIO 14.0\VC\INCLUDE\TYPEINFO
C:\PROGRAM FILES (X86)\MICROSOFT VISUAL STUDIO 14.0\VC\INCLUDE\VCRUNTIME_TYPEINFO.H
C:\PROGRAM FILES (X86)\MICROSOFT VISUAL STUDIO 14.0\VC\INCLUDE\XLOCINFO
C:\PROGRAM FILES (X86)\MICROSOFT VISUAL STUDIO 14.0\VC\INCLUDE\XLOCINFO.H
C:\PROGRAM FILES (X86)\WINDOWS KITS\10\INCLUDE\10.0.10150.0\UCRT\CTYPE.H
C:\PROGRAM FILES (X86)\WINDOWS KITS\10\INCLUDE\10.0.10150.0\UCRT\LOCALE.H
C:\PROGRAM FILES (X86)\MICROSOFT VISUAL STUDIO 14.0\VC\INCLUDE\XFACET
C:\PROGRAM FILES (X86)\MICROSOFT VISUAL STUDIO 14.0\VC\INCLUDE\SYSTEM_ERROR
C:\PROGRAM FILES (X86)\MICROSOFT VISUAL STUDIO 14.0\VC\INCLUDE\CERRNO
C:\PROGRAM FILES (X86)\WINDOWS KITS\10\INCLUDE\10.0.10150.0\UCRT\SHARE.H
C:\PROGRAM FILES (X86)\MICROSOFT VISUAL STUDIO 14.0\VC\INCLUDE\VECTOR
C:\PROGRAM FILES (X86)\MICROSOFT VISUAL STUDIO 14.0\VC\INCLUDE\XMEMORY
C:\PROGRAM FILES (X86)\MICROSOFT VISUAL STUDIO 14.0\VC\INCLUDE\IOSTREAM
C:\PROGRAM FILES (X86)\MICROSOFT VISUAL STUDIO 14.0\VC\INCLUDE\FSTREAM
C:\PROGRAM FILES (X86)\MICROSOFT VISUAL STUDIO 14.0\VC\INCLUDE\ALGORITHM
C:\USERS\JOHAN\DEV\GLEW-1.13.0\INCLUDE\GL\GLEW.H
C:\PROGRAM FILES (X86)\WINDOWS KITS\8.1\INCLUDE\UM\GL\GLU.H
C:\PROGRAM FILES (X86)\WINDOWS KITS\8.1\INCLUDE\SHARED\WINAPIFAMILY.H
C:\PROGRAM FILES (X86)\WINDOWS KITS\8.1\INCLUDE\UM\GL\GL.H
C:\USERS\JOHAN\GRAPHICSASSIGNMENTS2016\IMT2531-GRAPHICS_LABS_2016\LAB_06\SHADER.HPP
^C:\USERS\JOHAN\GRAPHICSASSIGNMENTS2016\IMT2531-GRAPHICS_LABS_2016\LAB_06\LAB06.CPP
C:\PROGRAM FILES (X86)\WINDOWS KITS\8.1\INCLUDE\SHARED\SDKDDKVER.H
C:\USERS\JOHAN\DEV\SDL2-2.0.3\INCLUDE\SDL.H
C:\USERS\JOHAN\DEV\SDL2-2.0.3\INCLUDE\SDL_MAIN.H
C:\USERS\JOHAN\DEV\SDL2-2.0.3\INCLUDE\SDL_STDINC.H
C:\USERS\JOHAN\DEV\SDL2-2.0.3\INCLUDE\SDL_CONFIG.H
C:\USERS\JOHAN\DEV\SDL2-2.0.3\INCLUDE\SDL_PLATFORM.H
C:\PROGRAM FILES (X86)\WINDOWS KITS\8.1\INCLUDE\SHARED\WINAPIFAMILY.H
C:\USERS\JOHAN\DEV\SDL2-2.0.3\INCLUDE\BEGIN_CODE.H
C:\USERS\JOHAN\DEV\SDL2-2.0.3\INCLUDE\CLOSE_CODE.H
C:\USERS\JOHAN\DEV\SDL2-2.0.3\INCLUDE\SDL_CONFIG_WINDOWS.H
C:\PROGRAM FILES (X86)\WINDOWS KITS\10\INCLUDE\10.0.10150.0\UCRT\STDDEF.H
C:\PROGRAM FILES (X86)\WINDOWS KITS\10\INCLUDE\10.0.10150.0\UCRT\CORECRT.H
C:\PROGRAM FILES (X86)\MICROSOFT VISUAL STUDIO 14.0\VC\INCLUDE\VCRUNTIME.H
C:\PROGRAM FILES (X86)\MICROSOFT VISUAL STUDIO 14.0\VC\INCLUDE\SAL.H
C:\PROGRAM FILES (X86)\MICROSOFT VISUAL STUDIO 14.0\VC\INCLUDE\CONCURRENCYSAL.H
C:\PROGRAM FILES (X86)\MICROSOFT VISUAL STUDIO 14.0\VC\INCLUDE\VADEFS.H
C:\PROGRAM FILES (X86)\MICROSOFT VISUAL STUDIO 14.0\VC\INCLUDE\STDARG.H
C:\USERS\JOHAN\DEV\SDL2-2.0.3\INCLUDE\SDL_ASSERT.H
C:\USERS\JOHAN\DEV\SDL2-2.0.3\INCLUDE\SDL_ATOMIC.H
C:\USERS\JOHAN\DEV\SDL2-2.0.3\INCLUDE\SDL_AUDIO.H
C:\USERS\JOHAN\DEV\SDL2-2.0.3\INCLUDE\SDL_ERROR.H
C:\USERS\JOHAN\DEV\SDL2-2.0.3\INCLUDE\SDL_ENDIAN.H
C:\USERS\JOHAN\DEV\SDL2-2.0.3\INCLUDE\SDL_MUTEX.H
C:\USERS\JOHAN\DEV\SDL2-2.0.3\INCLUDE\SDL_THREAD.H
C:\PROGRAM FILES (X86)\WINDOWS KITS\10\INCLUDE\10.0.10150.0\UCRT\PROCESS.H
C:\PROGRAM FILES (X86)\WINDOWS KITS\10\INCLUDE\10.0.10150.0\UCRT\CORECRT_STARTUP.H
C:\PROGRAM FILES (X86)\WINDOWS KITS\10\INCLUDE\10.0.10150.0\UCRT\MATH.H
C:\PROGRAM FILES (X86)\MICROSOFT VISUAL STUDIO 14.0\VC\INCLUDE\VCRUNTIME_STARTUP.H
C:\PROGRAM FILES (X86)\MICROSOFT VISUAL STUDIO 14.0\VC\INCLUDE\STDBOOL.H
C:\PROGRAM FILES (X86)\WINDOWS KITS\10\INCLUDE\10.0.10150.0\UCRT\CORECRT_WPROCESS.H
C:\USERS\JOHAN\DEV\SDL2-2.0.3\INCLUDE\SDL_RWOPS.H
C:\USERS\JOHAN\DEV\SDL2-2.0.3\INCLUDE\SDL_CLIPBOARD.H
C:\USERS\JOHAN\DEV\SDL2-2.0.3\INCLUDE\SDL_CPUINFO.H
C:\PROGRAM FILES (X86)\MICROSOFT VISUAL STUDIO 14.0\VC\INCLUDE\INTRIN.H
C:\PROGRAM FILES (X86)\MICROSOFT VISUAL STUDIO 14.0\VC\INCLUDE\SETJMP.H
C:\PROGRAM FILES (X86)\MICROSOFT VISUAL STUDIO 14.0\VC\INCLUDE\IMMINTRIN.H
C:\PROGRAM FILES (X86)\MICROSOFT VISUAL STUDIO 14.0\VC\INCLUDE\WMMINTRIN.H
C:\PROGRAM FILES (X86)\MICROSOFT VISUAL STUDIO 14.0\VC\INCLUDE\NMMINTRIN.H
C:\PROGRAM FILES (X86)\MICROSOFT VISUAL STUDIO 14.0\VC\INCLUDE\SMMINTRIN.H
C:\PROGRAM FILES (X86)\MICROSOFT VISUAL STUDIO 14.0\VC\INCLUDE\TMMINTRIN.H
C:\PROGRAM FILES (X86)\MICROSOFT VISUAL STUDIO 14.0\VC\INCLUDE\PMMINTRIN.H
C:\PROGRAM FILES (X86)\MICROSOFT VISUAL STUDIO 14.0\VC\INCLUDE\EMMINTRIN.H
C:\PROGRAM FILES (X86)\MICROSOFT VISUAL STUDIO 14.0\VC\INCLUDE\XMMINTRIN.H
C:\PROGRAM FILES (X86)\MICROSOFT VISUAL STUDIO 14.0\VC\INCLUDE\MMINTRIN.H
C:\PROGRAM FILES (X86)\WINDOWS KITS\10\INCLUDE\10.0.10150.0\UCRT\MALLOC.H
C:\PROGRAM FILES (X86)\WINDOWS KITS\10\INCLUDE\10.0.10150.0\UCRT\CORECRT_MALLOC.H
C:\PROGRAM FILES (X86)\MICROSOFT VISUAL STUDIO 14.0\VC\INCLUDE\AMMINTRIN.H
C:\PROGRAM FILES (X86)\MICROSOFT VISUAL STUDIO 14.0\VC\INCLUDE\MM3DNOW.H
C:\USERS\JOHAN\DEV\SDL2-2.0.3\INCLUDE\SDL_EVENTS.H
C:\USERS\JOHAN\DEV\SDL2-2.0.3\INCLUDE\SDL_VIDEO.H
C:\USERS\JOHAN\DEV\SDL2-2.0.3\INCLUDE\SDL_PIXELS.H
C:\USERS\JOHAN\DEV\SDL2-2.0.3\INCLUDE\SDL_RECT.H
C:\USERS\JOHAN\DEV\SDL2-2.0.3\INCLUDE\SDL_SURFACE.H
C:\USERS\JOHAN\DEV\SDL2-2.0.3\INCLUDE\SDL_BLENDMODE.H
C:\USERS\JOHAN\DEV\SDL2-2.0.3\INCLUDE\SDL_KEYBOARD.H
C:\USERS\JOHAN\DEV\SDL2-2.0.3\INCLUDE\SDL_KEYCODE.H
C:\USERS\JOHAN\DEV\SDL2-2.0.3\INCLUDE\SDL_SCANCODE.H
C:\USERS\JOHAN\DEV\SDL2-2.0.3\INCLUDE\SDL_MOUSE.H
C:\USERS\JOHAN\DEV\SDL2-2.0.3\INCLUDE\SDL_JOYSTICK.H
C:\USERS\JOHAN\DEV\SDL2-2.0.3\INCLUDE\SDL_GAMECONTROLLER.H
C:\USERS\JOHAN\DEV\SDL2-2.0.3\INCLUDE\SDL_QUIT.H
C:\USERS\JOHAN\DEV\SDL2-2.0.3\INCLUDE\SDL_GESTURE.H
C:\USERS\JOHAN\DEV\SDL2-2.0.3\INCLUDE\SDL_TOUCH.H
C:\USERS\JOHAN\DEV\SDL2-2.0.3\INCLUDE\SDL_FILESYSTEM.H
C:\USERS\JOHAN\DEV\SDL2-2.0.3\INCLUDE\SDL_HAPTIC.H
C:\USERS\JOHAN\DEV\SDL2-2.0.3\INCLUDE\SDL_HINTS.H
C:\USERS\JOHAN\DEV\SDL2-2.0.3\INCLUDE\SDL_LOADSO.H
C:\USERS\JOHAN\DEV\SDL2-2.0.3\INCLUDE\SDL_LOG.H
C:\USERS\JOHAN\DEV\SDL2-2.0.3\INCLUDE\SDL_MESSAGEBOX.H
C:\USERS\JOHAN\DEV\SDL2-2.0.3\INCLUDE\SDL_POWER.H
C:\USERS\JOHAN\DEV\SDL2-2.0.3\INCLUDE\SDL_RENDER.H
C:\USERS\JOHAN\DEV\SDL2-2.0.3\INCLUDE\SDL_SYSTEM.H
C:\USERS\JOHAN\DEV\SDL2-2.0.3\INCLUDE\SDL_TIMER.H
C:\USERS\JOHAN\DEV\SDL2-2.0.3\INCLUDE\SDL_VERSION.H
C:\USERS\JOHAN\DEV\GLEW-1.13.0\INCLUDE\GL\GLEW.H
C:\PROGRAM FILES (X86)\WINDOWS KITS\8.1\INCLUDE\UM\GL\GLU.H
C:\PROGRAM FILES (X86)\WINDOWS KITS\8.1\INCLUDE\UM\GL\GL.H
C:\USERS\JOHAN\DEV\SDL2-2.0.3\INCLUDE\SDL_OPENGL.H
C:\PROGRAM FILES (X86)\WINDOWS KITS\8.1\INCLUDE\UM\WINDOWS.H
C:\PROGRAM FILES (X86)\MICROSOFT VISUAL STUDIO 14.0\VC\INCLUDE\EXCPT.H
C:\PROGRAM FILES (X86)\WINDOWS KITS\8.1\INCLUDE\SHARED\WINDEF.H
C:\PROGRAM FILES (X86)\WINDOWS KITS\8.1\INCLUDE\SHARED\MINWINDEF.H
C:\PROGRAM FILES (X86)\WINDOWS KITS\8.1\INCLUDE\SHARED\SPECSTRINGS.H
C:\PROGRAM FILES (X86)\WINDOWS KITS\8.1\INCLUDE\SHARED\SPECSTRINGS_STRICT.H
C:\PROGRAM FILES (X86)\WINDOWS KITS\8.1\INCLUDE\SHARED\SPECSTRINGS_UNDEF.H
C:\PROGRAM FILES (X86)\WINDOWS KITS\8.1\INCLUDE\SHARED\DRIVERSPECS.H
C:\PROGRAM FILES (X86)\WINDOWS KITS\8.1\INCLUDE\SHARED\SDV_DRIVERSPECS.H
C:\PROGRAM FILES (X86)\WINDOWS KITS\8.1\INCLUDE\UM\WINNT.H
C:\PROGRAM FILES (X86)\WINDOWS KITS\10\INCLUDE\10.0.10150.0\UCRT\CTYPE.H
C:\PROGRAM FILES (X86)\WINDOWS KITS\10\INCLUDE\10.0.10150.0\UCRT\CORECRT_WCTYPE.H
C:\PROGRAM FILES (X86)\WINDOWS KITS\8.1\INCLUDE\SHARED\KERNELSPECS.H
C:\PROGRAM FILES (X86)\WINDOWS KITS\8.1\INCLUDE\SHARED\BASETSD.H
C:\PROGRAM FILES (X86)\WINDOWS KITS\8.1\INCLUDE\SHARED\GUIDDEF.H
C:\PROGRAM FILES (X86)\WINDOWS KITS\10\INCLUDE\10.0.10150.0\UCRT\STRING.H
C:\PROGRAM FILES (X86)\WINDOWS KITS\10\INCLUDE\10.0.10150.0\UCRT\CORECRT_MEMORY.H
C:\PROGRAM FILES (X86)\WINDOWS KITS\10\INCLUDE\10.0.10150.0\UCRT\CORECRT_MEMCPY_S.H
C:\PROGRAM FILES (X86)\WINDOWS KITS\10\INCLUDE\10.0.10150.0\UCRT\ERRNO.H
C:\PROGRAM FILES (X86)\MICROSOFT VISUAL STUDIO 14.0\VC\INCLUDE\VCRUNTIME_STRING.H
C:\PROGRAM FILES (X86)\WINDOWS KITS\10\INCLUDE\10.0.10150.0\UCRT\CORECRT_WSTRING.H
C:\PROGRAM FILES (X86)\WINDOWS KITS\8.1\INCLUDE\SHARED\PSHPACK4.H
C:\PROGRAM FILES (X86)\WINDOWS KITS\8.1\INCLUDE\SHARED\POPPACK.H
C:\PROGRAM FILES (X86)\WINDOWS KITS\8.1\INCLUDE\SHARED\PSHPACK2.H
C:\PROGRAM FILES (X86)\WINDOWS KITS\8.1\INCLUDE\SHARED\PSHPACK8.H
C:\PROGRAM FILES (X86)\WINDOWS KITS\8.1\INCLUDE\SHARED\APISET.H
C:\PROGRAM FILES (X86)\WINDOWS KITS\8.1\INCLUDE\SHARED\KTMTYPES.H
C:\PROGRAM FILES (X86)\WINDOWS KITS\8.1\INCLUDE\UM\WINBASE.H
C:\PROGRAM FILES (X86)\WINDOWS KITS\8.1\INCLUDE\SHARED\APISETCCONV.H
C:\PROGRAM FILES (X86)\WINDOWS KITS\8.1\INCLUDE\UM\MINWINBASE.H
C:\PROGRAM FILES (X86)\WINDOWS KITS\8.1\INCLUDE\UM\PROCESSENV.H
C:\PROGRAM FILES (X86)\WINDOWS KITS\8.1\INCLUDE\UM\FILEAPI.H
C:\PROGRAM FILES (X86)\WINDOWS KITS\8.1\INCLUDE\UM\DEBUGAPI.H
C:\PROGRAM FILES (X86)\WINDOWS KITS\8.1\INCLUDE\UM\UTILAPISET.H
C:\PROGRAM FILES (X86)\WINDOWS KITS\8.1\INCLUDE\UM\HANDLEAPI.H
C:\PROGRAM FILES (X86)\WINDOWS KITS\8.1\INCLUDE\UM\ERRHANDLINGAPI.H
C:\PROGRAM FILES (X86)\WINDOWS KITS\8.1\INCLUDE\UM\FIBERSAPI.H
C:\PROGRAM FILES (X86)\WINDOWS KITS\8.1\INCLUDE\UM\NAMEDPIPEAPI.H
C:\PROGRAM FILES (X86)\WINDOWS KITS\8.1\INCLUDE\UM\PROFILEAPI.H
C:\PROGRAM FILES (X86)\WINDOWS KITS\8.1\INCLUDE\UM\HEAPAPI.H
C:\PROGRAM FILES (X86)\WINDOWS KITS\8.1\INCLUDE\UM\IOAPISET.H
C:\PROGRAM FILES (X86)\WINDOWS KITS\8.1\INCLUDE\UM\SYNCHAPI.H
C:\PROGRAM FILES (X86)\WINDOWS KITS\8.1\INCLUDE\UM\INTERLOCKEDAPI.H
C:\PROGRAM FILES (X86)\WINDOWS KITS\8.1\INCLUDE\UM\PROCESSTHREADSAPI.H
C:\PROGRAM FILES (X86)\WINDOWS KITS\8.1\INCLUDE\UM\SYSINFOAPI.H
C:\PROGRAM FILES (X86)\WINDOWS KITS\8.1\INCLUDE\UM\MEMORYAPI.H
C:\PROGRAM FILES (X86)\WINDOWS KITS\8.1\INCLUDE\UM\THREADPOOLLEGACYAPISET.H
C:\PROGRAM FILES (X86)\WINDOWS KITS\8.1\INCLUDE\UM\THREADPOOLAPISET.H
C:\PROGRAM FILES (X86)\WINDOWS KITS\8.1\INCLUDE\UM\BEMAPISET.H
C:\PROGRAM FILES (X86)\WINDOWS KITS\8.1\INCLUDE\UM\JOBAPI.H
C:\PROGRAM FILES (X86)\WINDOWS KITS\8.1\INCLUDE\UM\WOW64APISET.H
C:\PROGRAM FILES (X86)\WINDOWS KITS\8.1\INCLUDE\UM\LIBLOADERAPI.H
C:\PROGRAM FILES (X86)\WINDOWS KITS\8.1\INCLUDE\UM\SECURITYBASEAPI.H
C:\PROGRAM FILES (X86)\WINDOWS KITS\8.1\INCLUDE\UM\NAMESPACEAPI.H
C:\PROGRAM FILES (X86)\WINDOWS KITS\8.1\INCLUDE\UM\SYSTEMTOPOLOGYAPI.H
C:\PROGRAM FILES (X86)\WINDOWS KITS\8.1\INCLUDE\UM\PROCESSTOPOLOGYAPI.H
C:\PROGRAM FILES (X86)\WINDOWS KITS\8.1\INCLUDE\UM\SECURITYAPPCONTAINER.H
C:\PROGRAM FILES (X86)\WINDOWS KITS\8.1\INCLUDE\UM\REALTIMEAPISET.H
C:\PROGRAM FILES (X86)\WINDOWS KITS\8.1\INCLUDE\SHARED\WINERROR.H
C:\PROGRAM FILES (X86)\WINDOWS KITS\8.1\INCLUDE\UM\TIMEZONEAPI.H
C:\PROGRAM FILES (X86)\WINDOWS KITS\8.1\INCLUDE\UM\WINGDI.H
C:\PROGRAM FILES (X86)\WINDOWS KITS\8.1\INCLUDE\SHARED\PSHPACK1.H
C:\PROGRAM FILES (X86)\WINDOWS KITS\8.1\INCLUDE\UM\WINUSER.H
C:\PROGRAM FILES (X86)\WINDOWS KITS\8.1\INCLUDE\SHARED\TVOUT.H
C:\PROGRAM FILES (X86)\WINDOWS KITS\8.1\INCLUDE\UM\WINNLS.H
C:\PROGRAM FILES (X86)\WINDOWS KITS\8.1\INCLUDE\UM\DATETIMEAPI.H
C:\PROGRAM FILES (X86)\WINDOWS KITS\8.1\INCLUDE\UM\STRINGAPISET.H
C:\PROGRAM FILES (X86)\WINDOWS KITS\8.1\INCLUDE\UM\WINCON.H
C:\PROGRAM FILES (X86)\WINDOWS KITS\8.1\INCLUDE\UM\CONSOLEAPI.H
C:\PROGRAM FILES (X86)\WINDOWS KITS\8.1\INCLUDE\UM\WINVER.H
C:\PROGRAM FILES (X86)\WINDOWS KITS\8.1\INCLUDE\UM\VERRSRC.H
C:\PROGRAM FILES (X86)\WINDOWS KITS\8.1\INCLUDE\UM\WINREG.H
C:\PROGRAM FILES (X86)\WINDOWS KITS\8.1\INCLUDE\UM\REASON.H
C:\PROGRAM FILES (X86)\WINDOWS KITS\8.1\INCLUDE\UM\WINNETWK.H
C:\PROGRAM FILES (X86)\WINDOWS KITS\8.1\INCLUDE\SHARED\WNNC.H
C:\PROGRAM FILES (X86)\WINDOWS KITS\8.1\INCLUDE\SHARED\STRALIGN.H
C:\PROGRAM FILES (X86)\WINDOWS KITS\8.1\INCLUDE\UM\WINSVC.H
C:\PROGRAM FILES (X86)\WINDOWS KITS\8.1\INCLUDE\UM\MCX.H
C:\PROGRAM FILES (X86)\WINDOWS KITS\8.1\INCLUDE\UM\IMM.H
C:\PROGRAM FILES (X86)\WINDOWS KITS\8.1\INCLUDE\UM\IME_CMODES.H
C:\USERS\JOHAN\DEV\GLM\GLM\GLM.HPP
C:\USERS\JOHAN\DEV\GLM\GLM\DETAIL\_FIXES.HPP
C:\PROGRAM FILES (X86)\MICROSOFT VISUAL STUDIO 14.0\VC\INCLUDE\CMATH
C:\PROGRAM FILES (X86)\MICROSOFT VISUAL STUDIO 14.0\VC\INCLUDE\YVALS.H
C:\PROGRAM FILES (X86)\MICROSOFT VISUAL STUDIO 14.0\VC\INCLUDE\XKEYCHECK.H
C:\PROGRAM FILES (X86)\MICROSOFT VISUAL STUDIO 14.0\VC\INCLUDE\CRTDEFS.H
C:\PROGRAM FILES (X86)\MICROSOFT VISUAL STUDIO 14.0\VC\INCLUDE\USE_ANSI.H
C:\PROGRAM FILES (X86)\MICROSOFT VISUAL STUDIO 14.0\VC\INCLUDE\XTGMATH.H
C:\PROGRAM FILES (X86)\MICROSOFT VISUAL STUDIO 14.0\VC\INCLUDE\XTR1COMMON
C:\PROGRAM FILES (X86)\MICROSOFT VISUAL STUDIO 14.0\VC\INCLUDE\CSTDLIB
C:\PROGRAM FILES (X86)\WINDOWS KITS\10\INCLUDE\10.0.10150.0\UCRT\STDLIB.H
C:\PROGRAM FILES (X86)\WINDOWS KITS\10\INCLUDE\10.0.10150.0\UCRT\CORECRT_SEARCH.H
C:\PROGRAM FILES (X86)\WINDOWS KITS\10\INCLUDE\10.0.10150.0\UCRT\CORECRT_WSTDLIB.H
C:\PROGRAM FILES (X86)\MICROSOFT VISUAL STUDIO 14.0\VC\INCLUDE\LIMITS.H
C:\PROGRAM FILES (X86)\MICROSOFT VISUAL STUDIO 14.0\VC\INCLUDE\CLIMITS
C:\PROGRAM FILES (X86)\MICROSOFT VISUAL STUDIO 14.0\VC\INCLUDE\CFLOAT
C:\PROGRAM FILES (X86)\WINDOWS KITS\10\INCLUDE\10.0.10150.0\UCRT\FLOAT.H
C:\PROGRAM FILES (X86)\MICROSOFT VISUAL STUDIO 14.0\VC\INCLUDE\LIMITS
C:\PROGRAM FILES (X86)\MICROSOFT VISUAL STUDIO 14.0\VC\INCLUDE\YMATH.H
C:\PROGRAM FILES (X86)\MICROSOFT VISUAL STUDIO 14.0\VC\INCLUDE\CWCHAR
C:\PROGRAM FILES (X86)\WINDOWS KITS\10\INCLUDE\10.0.10150.0\UCRT\WCHAR.H
C:\PROGRAM FILES (X86)\WINDOWS KITS\10\INCLUDE\10.0.10150.0\UCRT\CORECRT_WCONIO.H
C:\PROGRAM FILES (X86)\WINDOWS KITS\10\INCLUDE\10.0.10150.0\UCRT\CORECRT_STDIO_CONFIG.H
C:\PROGRAM FILES (X86)\WINDOWS KITS\10\INCLUDE\10.0.10150.0\UCRT\CORECRT_WDIRECT.H
C:\PROGRAM FILES (X86)\WINDOWS KITS\10\INCLUDE\10.0.10150.0\UCRT\CORECRT_WIO.H
C:\PROGRAM FILES (X86)\WINDOWS KITS\10\INCLUDE\10.0.10150.0\UCRT\CORECRT_SHARE.H
C:\PROGRAM FILES (X86)\WINDOWS KITS\10\INCLUDE\10.0.10150.0\UCRT\CORECRT_WSTDIO.H
C:\PROGRAM FILES (X86)\WINDOWS KITS\10\INCLUDE\10.0.10150.0\UCRT\CORECRT_WTIME.H
C:\PROGRAM FILES (X86)\WINDOWS KITS\10\INCLUDE\10.0.10150.0\UCRT\SYS\STAT.H
C:\PROGRAM FILES (X86)\WINDOWS KITS\10\INCLUDE\10.0.10150.0\UCRT\SYS\TYPES.H
C:\PROGRAM FILES (X86)\MICROSOFT VISUAL STUDIO 14.0\VC\INCLUDE\XSTDDEF
C:\PROGRAM FILES (X86)\MICROSOFT VISUAL STUDIO 14.0\VC\INCLUDE\CSTDDEF
C:\PROGRAM FILES (X86)\MICROSOFT VISUAL STUDIO 14.0\VC\INCLUDE\INITIALIZER_LIST
C:\PROGRAM FILES (X86)\MICROSOFT VISUAL STUDIO 14.0\VC\INCLUDE\CASSERT
C:\PROGRAM FILES (X86)\WINDOWS KITS\10\INCLUDE\10.0.10150.0\UCRT\ASSERT.H
C:\USERS\JOHAN\DEV\GLM\GLM\FWD.HPP
C:\USERS\JOHAN\DEV\GLM\GLM\DETAIL\TYPE_INT.HPP
C:\USERS\JOHAN\DEV\GLM\GLM\DETAIL\SETUP.HPP
C:\PROGRAM FILES (X86)\MICROSOFT VISUAL STUDIO 14.0\VC\INCLUDE\TYPE_TRAITS
C:\PROGRAM FILES (X86)\MICROSOFT VISUAL STUDIO 14.0\VC\INCLUDE\CSTDINT
C:\PROGRAM FILES (X86)\MICROSOFT VISUAL STUDIO 14.0\VC\INCLUDE\STDINT.H
C:\USERS\JOHAN\DEV\GLM\GLM\DETAIL\TYPE_FLOAT.HPP
C:\USERS\JOHAN\DEV\GLM\GLM\DETAIL\TYPE_VEC.HPP
C:\USERS\JOHAN\DEV\GLM\GLM\DETAIL\PRECISION.HPP
C:\USERS\JOHAN\DEV\GLM\GLM\DETAIL\TYPE_MAT.HPP
C:\USERS\JOHAN\DEV\GLM\GLM\VEC2.HPP
C:\USERS\JOHAN\DEV\GLM\GLM\DETAIL\TYPE_VEC2.HPP
C:\USERS\JOHAN\DEV\GLM\GLM\DETAIL\TYPE_VEC2.INL
C:\USERS\JOHAN\DEV\GLM\GLM\VEC3.HPP
C:\USERS\JOHAN\DEV\GLM\GLM\DETAIL\TYPE_VEC3.HPP
C:\USERS\JOHAN\DEV\GLM\GLM\DETAIL\TYPE_VEC3.INL
C:\USERS\JOHAN\DEV\GLM\GLM\VEC4.HPP
C:\USERS\JOHAN\DEV\GLM\GLM\DETAIL\TYPE_VEC4.HPP
C:\USERS\JOHAN\DEV\GLM\GLM\DETAIL\TYPE_VEC4.INL
C:\USERS\JOHAN\DEV\GLM\GLM\DETAIL\TYPE_VEC4_SSE2.INL
C:\USERS\JOHAN\DEV\GLM\GLM\MAT2X2.HPP
C:\USERS\JOHAN\DEV\GLM\GLM\DETAIL\TYPE_MAT2X2.HPP
C:\USERS\JOHAN\DEV\GLM\GLM\DETAIL\TYPE_MAT2X2.INL
C:\USERS\JOHAN\DEV\GLM\GLM\MAT2X3.HPP
C:\USERS\JOHAN\DEV\GLM\GLM\DETAIL\TYPE_MAT2X3.HPP
C:\USERS\JOHAN\DEV\GLM\GLM\DETAIL\TYPE_MAT2X3.INL
C:\USERS\JOHAN\DEV\GLM\GLM\MAT2X4.HPP
C:\USERS\JOHAN\DEV\GLM\GLM\DETAIL\TYPE_MAT2X4.HPP
C:\USERS\JOHAN\DEV\GLM\GLM\DETAIL\TYPE_MAT2X4.INL
C:\USERS\JOHAN\DEV\GLM\GLM\MAT3X2.HPP
C:\USERS\JOHAN\DEV\GLM\GLM\DETAIL\TYPE_MAT3X2.HPP
C:\USERS\JOHAN\DEV\GLM\GLM\DETAIL\TYPE_MAT3X2.INL
C:\USERS\JOHAN\DEV\GLM\GLM\MAT3X3.HPP
C:\USERS\JOHAN\DEV\GLM\GLM\DETAIL\TYPE_MAT3X3.HPP
C:\USERS\JOHAN\DEV\GLM\GLM\DETAIL\TYPE_MAT3X3.INL
C:\USERS\JOHAN\DEV\GLM\GLM\MAT3X4.HPP
C:\USERS\JOHAN\DEV\GLM\GLM\DETAIL\TYPE_MAT3X4.HPP
C:\USERS\JOHAN\DEV\GLM\GLM\DETAIL\TYPE_MAT3X4.INL
C:\USERS\JOHAN\DEV\GLM\GLM\MAT4X2.HPP
C:\USERS\JOHAN\DEV\GLM\GLM\DETAIL\TYPE_MAT4X2.HPP
C:\USERS\JOHAN\DEV\GLM\GLM\DETAIL\TYPE_MAT4X2.INL
C:\USERS\JOHAN\DEV\GLM\GLM\MAT4X3.HPP
C:\USERS\JOHAN\DEV\GLM\GLM\DETAIL\TYPE_MAT4X3.HPP
C:\USERS\JOHAN\DEV\GLM\GLM\DETAIL\TYPE_MAT4X3.INL
C:\USERS\JOHAN\DEV\GLM\GLM\MAT4X4.HPP
C:\USERS\JOHAN\DEV\GLM\GLM\DETAIL\TYPE_MAT4X4.HPP
C:\USERS\JOHAN\DEV\GLM\GLM\DETAIL\TYPE_MAT4X4.INL
C:\USERS\JOHAN\DEV\GLM\GLM\TRIGONOMETRIC.HPP
C:\USERS\JOHAN\DEV\GLM\GLM\DETAIL\FUNC_TRIGONOMETRIC.HPP
C:\USERS\JOHAN\DEV\GLM\GLM\DETAIL\FUNC_TRIGONOMETRIC.INL
C:\USERS\JOHAN\DEV\GLM\GLM\DETAIL\_VECTORIZE.HPP
C:\USERS\JOHAN\DEV\GLM\GLM\DETAIL\TYPE_VEC1.HPP
C:\USERS\JOHAN\DEV\GLM\GLM\DETAIL\TYPE_VEC1.INL
C:\USERS\JOHAN\DEV\GLM\GLM\EXPONENTIAL.HPP
C:\USERS\JOHAN\DEV\GLM\GLM\DETAIL\FUNC_EXPONENTIAL.HPP
C:\USERS\JOHAN\DEV\GLM\GLM\DETAIL\FUNC_EXPONENTIAL.INL
C:\USERS\JOHAN\DEV\GLM\GLM\DETAIL\FUNC_VECTOR_RELATIONAL.HPP
C:\USERS\JOHAN\DEV\GLM\GLM\DETAIL\FUNC_VECTOR_RELATIONAL.INL
C:\USERS\JOHAN\DEV\GLM\GLM\COMMON.HPP
C:\USERS\JOHAN\DEV\GLM\GLM\DETAIL\FUNC_COMMON.HPP
C:\USERS\JOHAN\DEV\GLM\GLM\DETAIL\FUNC_COMMON.INL
C:\USERS\JOHAN\DEV\GLM\GLM\PACKING.HPP
C:\USERS\JOHAN\DEV\GLM\GLM\DETAIL\FUNC_PACKING.HPP
C:\USERS\JOHAN\DEV\GLM\GLM\DETAIL\FUNC_PACKING.INL
C:\USERS\JOHAN\DEV\GLM\GLM\DETAIL\TYPE_HALF.HPP
C:\USERS\JOHAN\DEV\GLM\GLM\DETAIL\TYPE_HALF.INL
C:\USERS\JOHAN\DEV\GLM\GLM\GEOMETRIC.HPP
C:\USERS\JOHAN\DEV\GLM\GLM\DETAIL\FUNC_GEOMETRIC.HPP
C:\USERS\JOHAN\DEV\GLM\GLM\DETAIL\FUNC_GEOMETRIC.INL
C:\USERS\JOHAN\DEV\GLM\GLM\MATRIX.HPP
C:\USERS\JOHAN\DEV\GLM\GLM\DETAIL\FUNC_MATRIX.HPP
C:\USERS\JOHAN\DEV\GLM\GLM\DETAIL\FUNC_MATRIX.INL
C:\USERS\JOHAN\DEV\GLM\GLM\VECTOR_RELATIONAL.HPP
C:\USERS\JOHAN\DEV\GLM\GLM\INTEGER.HPP
C:\USERS\JOHAN\DEV\GLM\GLM\DETAIL\FUNC_INTEGER.HPP
C:\USERS\JOHAN\DEV\GLM\GLM\DETAIL\FUNC_INTEGER.INL
C:\USERS\JOHAN\DEV\GLM\GLM\GTC\CONSTANTS.HPP
C:\USERS\JOHAN\DEV\GLM\GLM\GTC\CONSTANTS.INL
C:\USERS\JOHAN\DEV\GLM\GLM\GTC\MATRIX_TRANSFORM.HPP
C:\USERS\JOHAN\DEV\GLM\GLM\GTC\MATRIX_TRANSFORM.INL
C:\USERS\JOHAN\DEV\GLM\GLM\GTC\TYPE_PTR.HPP
C:\USERS\JOHAN\DEV\GLM\GLM\GTC\QUATERNION.HPP
C:\USERS\JOHAN\DEV\GLM\GLM\GTC\QUATERNION.INL
C:\PROGRAM FILES (X86)\MICROSOFT VISUAL STUDIO 14.0\VC\INCLUDE\CSTRING
C:\USERS\JOHAN\DEV\GLM\GLM\GTC\TYPE_PTR.INL
C:\PROGRAM FILES (X86)\WINDOWS KITS\10\INCLUDE\10.0.10150.0\UCRT\STDIO.H
C:\PROGRAM FILES (X86)\MICROSOFT VISUAL STUDIO 14.0\VC\INCLUDE\STRING
C:\PROGRAM FILES (X86)\MICROSOFT VISUAL STUDIO 14.0\VC\INCLUDE\ISTREAM
C:\PROGRAM FILES (X86)\MICROSOFT VISUAL STUDIO 14.0\VC\INCLUDE\OSTREAM
C:\PROGRAM FILES (X86)\MICROSOFT VISUAL STUDIO 14.0\VC\INCLUDE\IOS
C:\PROGRAM FILES (X86)\MICROSOFT VISUAL STUDIO 14.0\VC\INCLUDE\XLOCNUM
C:\PROGRAM FILES (X86)\MICROSOFT VISUAL STUDIO 14.0\VC\INCLUDE\CSTDIO
C:\PROGRAM FILES (X86)\MICROSOFT VISUAL STUDIO 14.0\VC\INCLUDE\STREAMBUF
C:\PROGRAM FILES (X86)\MICROSOFT VISUAL STUDIO 14.0\VC\INCLUDE\XIOSBASE
C:\PROGRAM FILES (X86)\MICROSOFT VISUAL STUDIO 14.0\VC\INCLUDE\XLOCALE
C:\PROGRAM FILES (X86)\MICROSOFT VISUAL STUDIO 14.0\VC\INCLUDE\STDEXCEPT
C:\PROGRAM FILES (X86)\MICROSOFT VISUAL STUDIO 14.0\VC\INCLUDE\EXCEPTION
C:\PROGRAM FILES (X86)\MICROSOFT VISUAL STUDIO 14.0\VC\INCLUDE\VCRUNTIME_EXCEPTION.H
C:\PROGRAM FILES (X86)\MICROSOFT VISUAL STUDIO 14.0\VC\INCLUDE\EH.H
C:\PROGRAM FILES (X86)\WINDOWS KITS\10\INCLUDE\10.0.10150.0\UCRT\CORECRT_TERMINATE.H
C:\PROGRAM FILES (X86)\MICROSOFT VISUAL STUDIO 14.0\VC\INCLUDE\XSTRING
C:\PROGRAM FILES (X86)\MICROSOFT VISUAL STUDIO 14.0\VC\INCLUDE\XMEMORY0
C:\PROGRAM FILES (X86)\MICROSOFT VISUAL STUDIO 14.0\VC\INCLUDE\NEW
C:\PROGRAM FILES (X86)\MICROSOFT VISUAL STUDIO 14.0\VC\INCLUDE\VCRUNTIME_NEW.H
C:\PROGRAM FILES (X86)\MICROSOFT VISUAL STUDIO 14.0\VC\INCLUDE\XUTILITY
C:\PROGRAM FILES (X86)\MICROSOFT VISUAL STUDIO 14.0\VC\INCLUDE\UTILITY
C:\PROGRAM FILES (X86)\MICROSOFT VISUAL STUDIO 14.0\VC\INCLUDE\IOSFWD
C:\PROGRAM FILES (X86)\WINDOWS KITS\10\INCLUDE\10.0.10150.0\UCRT\CRTDBG.H
C:\PROGRAM FILES (X86)\MICROSOFT VISUAL STUDIO 14.0\VC\INCLUDE\VCRUNTIME_NEW_DEBUG.H
C:\PROGRAM FILES (X86)\MICROSOFT VISUAL STUDIO 14.0\VC\INCLUDE\XATOMIC0.H
C:\PROGRAM FILES (X86)\MICROSOFT VISUAL STUDIO 14.0\VC\INCLUDE\TYPEINFO
C:\PROGRAM FILES (X86)\MICROSOFT VISUAL STUDIO 14.0\VC\INCLUDE\VCRUNTIME_TYPEINFO.H
C:\PROGRAM FILES (X86)\MICROSOFT VISUAL STUDIO 14.0\VC\INCLUDE\XLOCINFO
C:\PROGRAM FILES (X86)\MICROSOFT VISUAL STUDIO 14.0\VC\INCLUDE\XLOCINFO.H
C:\PROGRAM FILES (X86)\WINDOWS KITS\10\INCLUDE\10.0.10150.0\UCRT\LOCALE.H
C:\PROGRAM FILES (X86)\MICROSOFT VISUAL STUDIO 14.0\VC\INCLUDE\XFACET
C:\PROGRAM FILES (X86)\MICROSOFT VISUAL STUDIO 14.0\VC\INCLUDE\SYSTEM_ERROR
C:\PROGRAM FILES (X86)\MICROSOFT VISUAL STUDIO 14.0\VC\INCLUDE\CERRNO
C:\PROGRAM FILES (X86)\WINDOWS KITS\10\INCLUDE\10.0.10150.0\UCRT\SHARE.H
C:\USERS\JOHAN\GRAPHICSASSIGNMENTS2016\IMT2531-GRAPHICS_LABS_2016\LAB_06\SHADER.HPP
C:\USERS\JOHAN\GRAPHICSASSIGNMENTS2016\IMT2531-GRAPHICS_LABS_2016\LAB_06\GLOBALS.H
C:\USERS\JOHAN\GRAPHICSASSIGNMENTS2016\IMT2531-GRAPHICS_LABS_2016\LAB_06\UTIL.H
C:\WINDOWS\GLOBALIZATION\SORTING\SORTDEFAULT.NLS
C:\PROGRAM FILES (X86)\MICROSOFT VISUAL STUDIO 14.0\VC\BIN\1033\CLUI.DLL
C:\WINDOWS\SYSTEM32\TZRES.DLL
^C:\USERS\JOHAN\GRAPHICSASSIGNMENTS2016\IMT2531-GRAPHICS_LABS_2016\LAB_06\GLOBALS.CPP
C:\USERS\JOHAN\GRAPHICSASSIGNMENTS2016\IMT2531-GRAPHICS_LABS_2016\LAB_06\GLOBALS.H
C:\PROGRAM FILES (X86)\WINDOWS KITS\8.1\INCLUDE\SHARED\SDKDDKVER.H
C:\USERS\JOHAN\DEV\SDL2-2.0.3\INCLUDE\SDL.H
C:\USERS\JOHAN\DEV\SDL2-2.0.3\INCLUDE\SDL_MAIN.H
C:\USERS\JOHAN\DEV\SDL2-2.0.3\INCLUDE\SDL_STDINC.H
C:\USERS\JOHAN\DEV\SDL2-2.0.3\INCLUDE\SDL_CONFIG.H
C:\USERS\JOHAN\DEV\SDL2-2.0.3\INCLUDE\SDL_PLATFORM.H
C:\PROGRAM FILES (X86)\WINDOWS KITS\8.1\INCLUDE\SHARED\WINAPIFAMILY.H
C:\USERS\JOHAN\DEV\SDL2-2.0.3\INCLUDE\BEGIN_CODE.H
C:\USERS\JOHAN\DEV\SDL2-2.0.3\INCLUDE\CLOSE_CODE.H
C:\USERS\JOHAN\DEV\SDL2-2.0.3\INCLUDE\SDL_CONFIG_WINDOWS.H
C:\PROGRAM FILES (X86)\WINDOWS KITS\10\INCLUDE\10.0.10150.0\UCRT\STDDEF.H
C:\PROGRAM FILES (X86)\WINDOWS KITS\10\INCLUDE\10.0.10150.0\UCRT\CORECRT.H
C:\PROGRAM FILES (X86)\MICROSOFT VISUAL STUDIO 14.0\VC\INCLUDE\VCRUNTIME.H
C:\PROGRAM FILES (X86)\MICROSOFT VISUAL STUDIO 14.0\VC\INCLUDE\SAL.H
C:\PROGRAM FILES (X86)\MICROSOFT VISUAL STUDIO 14.0\VC\INCLUDE\CONCURRENCYSAL.H
C:\PROGRAM FILES (X86)\MICROSOFT VISUAL STUDIO 14.0\VC\INCLUDE\VADEFS.H
C:\PROGRAM FILES (X86)\MICROSOFT VISUAL STUDIO 14.0\VC\INCLUDE\STDARG.H
C:\USERS\JOHAN\DEV\SDL2-2.0.3\INCLUDE\SDL_ASSERT.H
C:\USERS\JOHAN\DEV\SDL2-2.0.3\INCLUDE\SDL_ATOMIC.H
C:\USERS\JOHAN\DEV\SDL2-2.0.3\INCLUDE\SDL_AUDIO.H
C:\USERS\JOHAN\DEV\SDL2-2.0.3\INCLUDE\SDL_ERROR.H
C:\USERS\JOHAN\DEV\SDL2-2.0.3\INCLUDE\SDL_ENDIAN.H
C:\USERS\JOHAN\DEV\SDL2-2.0.3\INCLUDE\SDL_MUTEX.H
C:\USERS\JOHAN\DEV\SDL2-2.0.3\INCLUDE\SDL_THREAD.H
C:\PROGRAM FILES (X86)\WINDOWS KITS\10\INCLUDE\10.0.10150.0\UCRT\PROCESS.H
C:\PROGRAM FILES (X86)\WINDOWS KITS\10\INCLUDE\10.0.10150.0\UCRT\CORECRT_STARTUP.H
C:\PROGRAM FILES (X86)\WINDOWS KITS\10\INCLUDE\10.0.10150.0\UCRT\MATH.H
C:\PROGRAM FILES (X86)\MICROSOFT VISUAL STUDIO 14.0\VC\INCLUDE\VCRUNTIME_STARTUP.H
C:\PROGRAM FILES (X86)\MICROSOFT VISUAL STUDIO 14.0\VC\INCLUDE\STDBOOL.H
C:\PROGRAM FILES (X86)\WINDOWS KITS\10\INCLUDE\10.0.10150.0\UCRT\CORECRT_WPROCESS.H
C:\USERS\JOHAN\DEV\SDL2-2.0.3\INCLUDE\SDL_RWOPS.H
C:\USERS\JOHAN\DEV\SDL2-2.0.3\INCLUDE\SDL_CLIPBOARD.H
C:\USERS\JOHAN\DEV\SDL2-2.0.3\INCLUDE\SDL_CPUINFO.H
C:\PROGRAM FILES (X86)\MICROSOFT VISUAL STUDIO 14.0\VC\INCLUDE\INTRIN.H
C:\PROGRAM FILES (X86)\MICROSOFT VISUAL STUDIO 14.0\VC\INCLUDE\SETJMP.H
C:\PROGRAM FILES (X86)\MICROSOFT VISUAL STUDIO 14.0\VC\INCLUDE\IMMINTRIN.H
C:\PROGRAM FILES (X86)\MICROSOFT VISUAL STUDIO 14.0\VC\INCLUDE\WMMINTRIN.H
C:\PROGRAM FILES (X86)\MICROSOFT VISUAL STUDIO 14.0\VC\INCLUDE\NMMINTRIN.H
C:\PROGRAM FILES (X86)\MICROSOFT VISUAL STUDIO 14.0\VC\INCLUDE\SMMINTRIN.H
C:\PROGRAM FILES (X86)\MICROSOFT VISUAL STUDIO 14.0\VC\INCLUDE\TMMINTRIN.H
C:\PROGRAM FILES (X86)\MICROSOFT VISUAL STUDIO 14.0\VC\INCLUDE\PMMINTRIN.H
C:\PROGRAM FILES (X86)\MICROSOFT VISUAL STUDIO 14.0\VC\INCLUDE\EMMINTRIN.H
C:\PROGRAM FILES (X86)\MICROSOFT VISUAL STUDIO 14.0\VC\INCLUDE\XMMINTRIN.H
C:\PROGRAM FILES (X86)\MICROSOFT VISUAL STUDIO 14.0\VC\INCLUDE\MMINTRIN.H
C:\PROGRAM FILES (X86)\WINDOWS KITS\10\INCLUDE\10.0.10150.0\UCRT\MALLOC.H
C:\PROGRAM FILES (X86)\WINDOWS KITS\10\INCLUDE\10.0.10150.0\UCRT\CORECRT_MALLOC.H
C:\PROGRAM FILES (X86)\MICROSOFT VISUAL STUDIO 14.0\VC\INCLUDE\AMMINTRIN.H
C:\PROGRAM FILES (X86)\MICROSOFT VISUAL STUDIO 14.0\VC\INCLUDE\MM3DNOW.H
C:\USERS\JOHAN\DEV\SDL2-2.0.3\INCLUDE\SDL_EVENTS.H
C:\USERS\JOHAN\DEV\SDL2-2.0.3\INCLUDE\SDL_VIDEO.H
C:\USERS\JOHAN\DEV\SDL2-2.0.3\INCLUDE\SDL_PIXELS.H
C:\USERS\JOHAN\DEV\SDL2-2.0.3\INCLUDE\SDL_RECT.H
C:\USERS\JOHAN\DEV\SDL2-2.0.3\INCLUDE\SDL_SURFACE.H
C:\USERS\JOHAN\DEV\SDL2-2.0.3\INCLUDE\SDL_BLENDMODE.H
C:\USERS\JOHAN\DEV\SDL2-2.0.3\INCLUDE\SDL_KEYBOARD.H
C:\USERS\JOHAN\DEV\SDL2-2.0.3\INCLUDE\SDL_KEYCODE.H
C:\USERS\JOHAN\DEV\SDL2-2.0.3\INCLUDE\SDL_SCANCODE.H
C:\USERS\JOHAN\DEV\SDL2-2.0.3\INCLUDE\SDL_MOUSE.H
C:\USERS\JOHAN\DEV\SDL2-2.0.3\INCLUDE\SDL_JOYSTICK.H
C:\USERS\JOHAN\DEV\SDL2-2.0.3\INCLUDE\SDL_GAMECONTROLLER.H
C:\USERS\JOHAN\DEV\SDL2-2.0.3\INCLUDE\SDL_QUIT.H
C:\USERS\JOHAN\DEV\SDL2-2.0.3\INCLUDE\SDL_GESTURE.H
C:\USERS\JOHAN\DEV\SDL2-2.0.3\INCLUDE\SDL_TOUCH.H
C:\USERS\JOHAN\DEV\SDL2-2.0.3\INCLUDE\SDL_FILESYSTEM.H
C:\USERS\JOHAN\DEV\SDL2-2.0.3\INCLUDE\SDL_HAPTIC.H
C:\USERS\JOHAN\DEV\SDL2-2.0.3\INCLUDE\SDL_HINTS.H
C:\USERS\JOHAN\DEV\SDL2-2.0.3\INCLUDE\SDL_LOADSO.H
C:\USERS\JOHAN\DEV\SDL2-2.0.3\INCLUDE\SDL_LOG.H
C:\USERS\JOHAN\DEV\SDL2-2.0.3\INCLUDE\SDL_MESSAGEBOX.H
C:\USERS\JOHAN\DEV\SDL2-2.0.3\INCLUDE\SDL_POWER.H
C:\USERS\JOHAN\DEV\SDL2-2.0.3\INCLUDE\SDL_RENDER.H
C:\USERS\JOHAN\DEV\SDL2-2.0.3\INCLUDE\SDL_SYSTEM.H
C:\USERS\JOHAN\DEV\SDL2-2.0.3\INCLUDE\SDL_TIMER.H
C:\USERS\JOHAN\DEV\SDL2-2.0.3\INCLUDE\SDL_VERSION.H
C:\USERS\JOHAN\DEV\GLEW-1.13.0\INCLUDE\GL\GLEW.H
C:\PROGRAM FILES (X86)\WINDOWS KITS\8.1\INCLUDE\UM\GL\GLU.H
C:\PROGRAM FILES (X86)\WINDOWS KITS\8.1\INCLUDE\UM\GL\GL.H
C:\USERS\JOHAN\DEV\SDL2-2.0.3\INCLUDE\SDL_OPENGL.H
C:\PROGRAM FILES (X86)\WINDOWS KITS\8.1\INCLUDE\UM\WINDOWS.H
C:\PROGRAM FILES (X86)\MICROSOFT VISUAL STUDIO 14.0\VC\INCLUDE\EXCPT.H
C:\PROGRAM FILES (X86)\WINDOWS KITS\8.1\INCLUDE\SHARED\WINDEF.H
C:\PROGRAM FILES (X86)\WINDOWS KITS\8.1\INCLUDE\SHARED\MINWINDEF.H
C:\PROGRAM FILES (X86)\WINDOWS KITS\8.1\INCLUDE\SHARED\SPECSTRINGS.H
C:\PROGRAM FILES (X86)\WINDOWS KITS\8.1\INCLUDE\SHARED\SPECSTRINGS_STRICT.H
C:\PROGRAM FILES (X86)\WINDOWS KITS\8.1\INCLUDE\SHARED\SPECSTRINGS_UNDEF.H
C:\PROGRAM FILES (X86)\WINDOWS KITS\8.1\INCLUDE\SHARED\DRIVERSPECS.H
C:\PROGRAM FILES (X86)\WINDOWS KITS\8.1\INCLUDE\SHARED\SDV_DRIVERSPECS.H
C:\PROGRAM FILES (X86)\WINDOWS KITS\8.1\INCLUDE\UM\WINNT.H
C:\PROGRAM FILES (X86)\WINDOWS KITS\10\INCLUDE\10.0.10150.0\UCRT\CTYPE.H
C:\PROGRAM FILES (X86)\WINDOWS KITS\10\INCLUDE\10.0.10150.0\UCRT\CORECRT_WCTYPE.H
C:\PROGRAM FILES (X86)\WINDOWS KITS\8.1\INCLUDE\SHARED\KERNELSPECS.H
C:\PROGRAM FILES (X86)\WINDOWS KITS\8.1\INCLUDE\SHARED\BASETSD.H
C:\PROGRAM FILES (X86)\WINDOWS KITS\8.1\INCLUDE\SHARED\GUIDDEF.H
C:\PROGRAM FILES (X86)\WINDOWS KITS\10\INCLUDE\10.0.10150.0\UCRT\STRING.H
C:\PROGRAM FILES (X86)\WINDOWS KITS\10\INCLUDE\10.0.10150.0\UCRT\CORECRT_MEMORY.H
C:\PROGRAM FILES (X86)\WINDOWS KITS\10\INCLUDE\10.0.10150.0\UCRT\CORECRT_MEMCPY_S.H
C:\PROGRAM FILES (X86)\WINDOWS KITS\10\INCLUDE\10.0.10150.0\UCRT\ERRNO.H
C:\PROGRAM FILES (X86)\MICROSOFT VISUAL STUDIO 14.0\VC\INCLUDE\VCRUNTIME_STRING.H
C:\PROGRAM FILES (X86)\WINDOWS KITS\10\INCLUDE\10.0.10150.0\UCRT\CORECRT_WSTRING.H
C:\PROGRAM FILES (X86)\WINDOWS KITS\8.1\INCLUDE\SHARED\PSHPACK4.H
C:\PROGRAM FILES (X86)\WINDOWS KITS\8.1\INCLUDE\SHARED\POPPACK.H
C:\PROGRAM FILES (X86)\WINDOWS KITS\8.1\INCLUDE\SHARED\PSHPACK2.H
C:\PROGRAM FILES (X86)\WINDOWS KITS\8.1\INCLUDE\SHARED\PSHPACK8.H
C:\PROGRAM FILES (X86)\WINDOWS KITS\8.1\INCLUDE\SHARED\APISET.H
C:\PROGRAM FILES (X86)\WINDOWS KITS\8.1\INCLUDE\SHARED\KTMTYPES.H
C:\PROGRAM FILES (X86)\WINDOWS KITS\8.1\INCLUDE\UM\WINBASE.H
C:\PROGRAM FILES (X86)\WINDOWS KITS\8.1\INCLUDE\SHARED\APISETCCONV.H
C:\PROGRAM FILES (X86)\WINDOWS KITS\8.1\INCLUDE\UM\MINWINBASE.H
C:\PROGRAM FILES (X86)\WINDOWS KITS\8.1\INCLUDE\UM\PROCESSENV.H
C:\PROGRAM FILES (X86)\WINDOWS KITS\8.1\INCLUDE\UM\FILEAPI.H
C:\PROGRAM FILES (X86)\WINDOWS KITS\8.1\INCLUDE\UM\DEBUGAPI.H
C:\PROGRAM FILES (X86)\WINDOWS KITS\8.1\INCLUDE\UM\UTILAPISET.H
C:\PROGRAM FILES (X86)\WINDOWS KITS\8.1\INCLUDE\UM\HANDLEAPI.H
C:\PROGRAM FILES (X86)\WINDOWS KITS\8.1\INCLUDE\UM\ERRHANDLINGAPI.H
C:\PROGRAM FILES (X86)\WINDOWS KITS\8.1\INCLUDE\UM\FIBERSAPI.H
C:\PROGRAM FILES (X86)\WINDOWS KITS\8.1\INCLUDE\UM\NAMEDPIPEAPI.H
C:\PROGRAM FILES (X86)\WINDOWS KITS\8.1\INCLUDE\UM\PROFILEAPI.H
C:\PROGRAM FILES (X86)\WINDOWS KITS\8.1\INCLUDE\UM\HEAPAPI.H
C:\PROGRAM FILES (X86)\WINDOWS KITS\8.1\INCLUDE\UM\IOAPISET.H
C:\PROGRAM FILES (X86)\WINDOWS KITS\8.1\INCLUDE\UM\SYNCHAPI.H
C:\PROGRAM FILES (X86)\WINDOWS KITS\8.1\INCLUDE\UM\INTERLOCKEDAPI.H
C:\PROGRAM FILES (X86)\WINDOWS KITS\8.1\INCLUDE\UM\PROCESSTHREADSAPI.H
C:\PROGRAM FILES (X86)\WINDOWS KITS\8.1\INCLUDE\UM\SYSINFOAPI.H
C:\PROGRAM FILES (X86)\WINDOWS KITS\8.1\INCLUDE\UM\MEMORYAPI.H
C:\PROGRAM FILES (X86)\WINDOWS KITS\8.1\INCLUDE\UM\THREADPOOLLEGACYAPISET.H
C:\PROGRAM FILES (X86)\WINDOWS KITS\8.1\INCLUDE\UM\THREADPOOLAPISET.H
C:\PROGRAM FILES (X86)\WINDOWS KITS\8.1\INCLUDE\UM\BEMAPISET.H
C:\PROGRAM FILES (X86)\WINDOWS KITS\8.1\INCLUDE\UM\JOBAPI.H
C:\PROGRAM FILES (X86)\WINDOWS KITS\8.1\INCLUDE\UM\WOW64APISET.H
C:\PROGRAM FILES (X86)\WINDOWS KITS\8.1\INCLUDE\UM\LIBLOADERAPI.H
C:\PROGRAM FILES (X86)\WINDOWS KITS\8.1\INCLUDE\UM\SECURITYBASEAPI.H
C:\PROGRAM FILES (X86)\WINDOWS KITS\8.1\INCLUDE\UM\NAMESPACEAPI.H
C:\PROGRAM FILES (X86)\WINDOWS KITS\8.1\INCLUDE\UM\SYSTEMTOPOLOGYAPI.H
C:\PROGRAM FILES (X86)\WINDOWS KITS\8.1\INCLUDE\UM\PROCESSTOPOLOGYAPI.H
C:\PROGRAM FILES (X86)\WINDOWS KITS\8.1\INCLUDE\UM\SECURITYAPPCONTAINER.H
C:\PROGRAM FILES (X86)\WINDOWS KITS\8.1\INCLUDE\UM\REALTIMEAPISET.H
C:\PROGRAM FILES (X86)\WINDOWS KITS\8.1\INCLUDE\SHARED\WINERROR.H
C:\PROGRAM FILES (X86)\WINDOWS KITS\8.1\INCLUDE\UM\TIMEZONEAPI.H
C:\PROGRAM FILES (X86)\WINDOWS KITS\8.1\INCLUDE\UM\WINGDI.H
C:\PROGRAM FILES (X86)\WINDOWS KITS\8.1\INCLUDE\SHARED\PSHPACK1.H
C:\PROGRAM FILES (X86)\WINDOWS KITS\8.1\INCLUDE\UM\WINUSER.H
C:\PROGRAM FILES (X86)\WINDOWS KITS\8.1\INCLUDE\SHARED\TVOUT.H
C:\PROGRAM FILES (X86)\WINDOWS KITS\8.1\INCLUDE\UM\WINNLS.H
C:\PROGRAM FILES (X86)\WINDOWS KITS\8.1\INCLUDE\UM\DATETIMEAPI.H
C:\PROGRAM FILES (X86)\WINDOWS KITS\8.1\INCLUDE\UM\STRINGAPISET.H
C:\PROGRAM FILES (X86)\WINDOWS KITS\8.1\INCLUDE\UM\WINCON.H
C:\PROGRAM FILES (X86)\WINDOWS KITS\8.1\INCLUDE\UM\CONSOLEAPI.H
C:\PROGRAM FILES (X86)\WINDOWS KITS\8.1\INCLUDE\UM\WINVER.H
C:\PROGRAM FILES (X86)\WINDOWS KITS\8.1\INCLUDE\UM\VERRSRC.H
C:\PROGRAM FILES (X86)\WINDOWS KITS\8.1\INCLUDE\UM\WINREG.H
C:\PROGRAM FILES (X86)\WINDOWS KITS\8.1\INCLUDE\UM\REASON.H
C:\PROGRAM FILES (X86)\WINDOWS KITS\8.1\INCLUDE\UM\WINNETWK.H
C:\PROGRAM FILES (X86)\WINDOWS KITS\8.1\INCLUDE\SHARED\WNNC.H
C:\PROGRAM FILES (X86)\WINDOWS KITS\8.1\INCLUDE\SHARED\STRALIGN.H
C:\PROGRAM FILES (X86)\WINDOWS KITS\8.1\INCLUDE\UM\WINSVC.H
C:\PROGRAM FILES (X86)\WINDOWS KITS\8.1\INCLUDE\UM\MCX.H
C:\PROGRAM FILES (X86)\WINDOWS KITS\8.1\INCLUDE\UM\IMM.H
C:\PROGRAM FILES (X86)\WINDOWS KITS\8.1\INCLUDE\UM\IME_CMODES.H
C:\USERS\JOHAN\DEV\GLM\GLM\GLM.HPP
C:\USERS\JOHAN\DEV\GLM\GLM\DETAIL\_FIXES.HPP
C:\PROGRAM FILES (X86)\MICROSOFT VISUAL STUDIO 14.0\VC\INCLUDE\CMATH
C:\PROGRAM FILES (X86)\MICROSOFT VISUAL STUDIO 14.0\VC\INCLUDE\YVALS.H
C:\PROGRAM FILES (X86)\MICROSOFT VISUAL STUDIO 14.0\VC\INCLUDE\XKEYCHECK.H
C:\PROGRAM FILES (X86)\MICROSOFT VISUAL STUDIO 14.0\VC\INCLUDE\CRTDEFS.H
C:\PROGRAM FILES (X86)\MICROSOFT VISUAL STUDIO 14.0\VC\INCLUDE\USE_ANSI.H
C:\PROGRAM FILES (X86)\MICROSOFT VISUAL STUDIO 14.0\VC\INCLUDE\XTGMATH.H
C:\PROGRAM FILES (X86)\MICROSOFT VISUAL STUDIO 14.0\VC\INCLUDE\XTR1COMMON
C:\PROGRAM FILES (X86)\MICROSOFT VISUAL STUDIO 14.0\VC\INCLUDE\CSTDLIB
C:\PROGRAM FILES (X86)\WINDOWS KITS\10\INCLUDE\10.0.10150.0\UCRT\STDLIB.H
C:\PROGRAM FILES (X86)\WINDOWS KITS\10\INCLUDE\10.0.10150.0\UCRT\CORECRT_SEARCH.H
C:\PROGRAM FILES (X86)\WINDOWS KITS\10\INCLUDE\10.0.10150.0\UCRT\CORECRT_WSTDLIB.H
C:\PROGRAM FILES (X86)\MICROSOFT VISUAL STUDIO 14.0\VC\INCLUDE\LIMITS.H
C:\PROGRAM FILES (X86)\MICROSOFT VISUAL STUDIO 14.0\VC\INCLUDE\CLIMITS
C:\PROGRAM FILES (X86)\MICROSOFT VISUAL STUDIO 14.0\VC\INCLUDE\CFLOAT
C:\PROGRAM FILES (X86)\WINDOWS KITS\10\INCLUDE\10.0.10150.0\UCRT\FLOAT.H
C:\PROGRAM FILES (X86)\MICROSOFT VISUAL STUDIO 14.0\VC\INCLUDE\LIMITS
C:\PROGRAM FILES (X86)\MICROSOFT VISUAL STUDIO 14.0\VC\INCLUDE\YMATH.H
C:\PROGRAM FILES (X86)\MICROSOFT VISUAL STUDIO 14.0\VC\INCLUDE\CWCHAR
C:\PROGRAM FILES (X86)\WINDOWS KITS\10\INCLUDE\10.0.10150.0\UCRT\WCHAR.H
C:\PROGRAM FILES (X86)\WINDOWS KITS\10\INCLUDE\10.0.10150.0\UCRT\CORECRT_WCONIO.H
C:\PROGRAM FILES (X86)\WINDOWS KITS\10\INCLUDE\10.0.10150.0\UCRT\CORECRT_STDIO_CONFIG.H
C:\PROGRAM FILES (X86)\WINDOWS KITS\10\INCLUDE\10.0.10150.0\UCRT\CORECRT_WDIRECT.H
C:\PROGRAM FILES (X86)\WINDOWS KITS\10\INCLUDE\10.0.10150.0\UCRT\CORECRT_WIO.H
C:\PROGRAM FILES (X86)\WINDOWS KITS\10\INCLUDE\10.0.10150.0\UCRT\CORECRT_SHARE.H
C:\PROGRAM FILES (X86)\WINDOWS KITS\10\INCLUDE\10.0.10150.0\UCRT\CORECRT_WSTDIO.H
C:\PROGRAM FILES (X86)\WINDOWS KITS\10\INCLUDE\10.0.10150.0\UCRT\CORECRT_WTIME.H
C:\PROGRAM FILES (X86)\WINDOWS KITS\10\INCLUDE\10.0.10150.0\UCRT\SYS\STAT.H
C:\PROGRAM FILES (X86)\WINDOWS KITS\10\INCLUDE\10.0.10150.0\UCRT\SYS\TYPES.H
C:\PROGRAM FILES (X86)\MICROSOFT VISUAL STUDIO 14.0\VC\INCLUDE\XSTDDEF
C:\PROGRAM FILES (X86)\MICROSOFT VISUAL STUDIO 14.0\VC\INCLUDE\CSTDDEF
C:\PROGRAM FILES (X86)\MICROSOFT VISUAL STUDIO 14.0\VC\INCLUDE\INITIALIZER_LIST
C:\PROGRAM FILES (X86)\MICROSOFT VISUAL STUDIO 14.0\VC\INCLUDE\CASSERT
C:\PROGRAM FILES (X86)\WINDOWS KITS\10\INCLUDE\10.0.10150.0\UCRT\ASSERT.H
C:\USERS\JOHAN\DEV\GLM\GLM\FWD.HPP
C:\USERS\JOHAN\DEV\GLM\GLM\DETAIL\TYPE_INT.HPP
C:\USERS\JOHAN\DEV\GLM\GLM\DETAIL\SETUP.HPP
C:\PROGRAM FILES (X86)\MICROSOFT VISUAL STUDIO 14.0\VC\INCLUDE\TYPE_TRAITS
C:\PROGRAM FILES (X86)\MICROSOFT VISUAL STUDIO 14.0\VC\INCLUDE\CSTDINT
C:\PROGRAM FILES (X86)\MICROSOFT VISUAL STUDIO 14.0\VC\INCLUDE\STDINT.H
C:\USERS\JOHAN\DEV\GLM\GLM\DETAIL\TYPE_FLOAT.HPP
C:\USERS\JOHAN\DEV\GLM\GLM\DETAIL\TYPE_VEC.HPP
C:\USERS\JOHAN\DEV\GLM\GLM\DETAIL\PRECISION.HPP
C:\USERS\JOHAN\DEV\GLM\GLM\DETAIL\TYPE_MAT.HPP
C:\USERS\JOHAN\DEV\GLM\GLM\VEC2.HPP
C:\USERS\JOHAN\DEV\GLM\GLM\DETAIL\TYPE_VEC2.HPP
C:\USERS\JOHAN\DEV\GLM\GLM\DETAIL\TYPE_VEC2.INL
C:\USERS\JOHAN\DEV\GLM\GLM\VEC3.HPP
C:\USERS\JOHAN\DEV\GLM\GLM\DETAIL\TYPE_VEC3.HPP
C:\USERS\JOHAN\DEV\GLM\GLM\DETAIL\TYPE_VEC3.INL
C:\USERS\JOHAN\DEV\GLM\GLM\VEC4.HPP
C:\USERS\JOHAN\DEV\GLM\GLM\DETAIL\TYPE_VEC4.HPP
C:\USERS\JOHAN\DEV\GLM\GLM\DETAIL\TYPE_VEC4.INL
C:\USERS\JOHAN\DEV\GLM\GLM\DETAIL\TYPE_VEC4_SSE2.INL
C:\USERS\JOHAN\DEV\GLM\GLM\MAT2X2.HPP
C:\USERS\JOHAN\DEV\GLM\GLM\DETAIL\TYPE_MAT2X2.HPP
C:\USERS\JOHAN\DEV\GLM\GLM\DETAIL\TYPE_MAT2X2.INL
C:\USERS\JOHAN\DEV\GLM\GLM\MAT2X3.HPP
C:\USERS\JOHAN\DEV\GLM\GLM\DETAIL\TYPE_MAT2X3.HPP
C:\USERS\JOHAN\DEV\GLM\GLM\DETAIL\TYPE_MAT2X3.INL
C:\USERS\JOHAN\DEV\GLM\GLM\MAT2X4.HPP
C:\USERS\JOHAN\DEV\GLM\GLM\DETAIL\TYPE_MAT2X4.HPP
C:\USERS\JOHAN\DEV\GLM\GLM\DETAIL\TYPE_MAT2X4.INL
C:\USERS\JOHAN\DEV\GLM\GLM\MAT3X2.HPP
C:\USERS\JOHAN\DEV\GLM\GLM\DETAIL\TYPE_MAT3X2.HPP
C:\USERS\JOHAN\DEV\GLM\GLM\DETAIL\TYPE_MAT3X2.INL
C:\USERS\JOHAN\DEV\GLM\GLM\MAT3X3.HPP
C:\USERS\JOHAN\DEV\GLM\GLM\DETAIL\TYPE_MAT3X3.HPP
C:\USERS\JOHAN\DEV\GLM\GLM\DETAIL\TYPE_MAT3X3.INL
C:\USERS\JOHAN\DEV\GLM\GLM\MAT3X4.HPP
C:\USERS\JOHAN\DEV\GLM\GLM\DETAIL\TYPE_MAT3X4.HPP
C:\USERS\JOHAN\DEV\GLM\GLM\DETAIL\TYPE_MAT3X4.INL
C:\USERS\JOHAN\DEV\GLM\GLM\MAT4X2.HPP
C:\USERS\JOHAN\DEV\GLM\GLM\DETAIL\TYPE_MAT4X2.HPP
C:\USERS\JOHAN\DEV\GLM\GLM\DETAIL\TYPE_MAT4X2.INL
C:\USERS\JOHAN\DEV\GLM\GLM\MAT4X3.HPP
C:\USERS\JOHAN\DEV\GLM\GLM\DETAIL\TYPE_MAT4X3.HPP
C:\USERS\JOHAN\DEV\GLM\GLM\DETAIL\TYPE_MAT4X3.INL
C:\USERS\JOHAN\DEV\GLM\GLM\MAT4X4.HPP
C:\USERS\JOHAN\DEV\GLM\GLM\DETAIL\TYPE_MAT4X4.HPP
C:\USERS\JOHAN\DEV\GLM\GLM\DETAIL\TYPE_MAT4X4.INL
C:\USERS\JOHAN\DEV\GLM\GLM\TRIGONOMETRIC.HPP
C:\USERS\JOHAN\DEV\GLM\GLM\DETAIL\FUNC_TRIGONOMETRIC.HPP
C:\USERS\JOHAN\DEV\GLM\GLM\DETAIL\FUNC_TRIGONOMETRIC.INL
C:\USERS\JOHAN\DEV\GLM\GLM\DETAIL\_VECTORIZE.HPP
C:\USERS\JOHAN\DEV\GLM\GLM\DETAIL\TYPE_VEC1.HPP
C:\USERS\JOHAN\DEV\GLM\GLM\DETAIL\TYPE_VEC1.INL
C:\USERS\JOHAN\DEV\GLM\GLM\EXPONENTIAL.HPP
C:\USERS\JOHAN\DEV\GLM\GLM\DETAIL\FUNC_EXPONENTIAL.HPP
C:\USERS\JOHAN\DEV\GLM\GLM\DETAIL\FUNC_EXPONENTIAL.INL
C:\USERS\JOHAN\DEV\GLM\GLM\DETAIL\FUNC_VECTOR_RELATIONAL.HPP
C:\USERS\JOHAN\DEV\GLM\GLM\DETAIL\FUNC_VECTOR_RELATIONAL.INL
C:\USERS\JOHAN\DEV\GLM\GLM\COMMON.HPP
C:\USERS\JOHAN\DEV\GLM\GLM\DETAIL\FUNC_COMMON.HPP
C:\USERS\JOHAN\DEV\GLM\GLM\DETAIL\FUNC_COMMON.INL
C:\USERS\JOHAN\DEV\GLM\GLM\PACKING.HPP
C:\USERS\JOHAN\DEV\GLM\GLM\DETAIL\FUNC_PACKING.HPP
C:\USERS\JOHAN\DEV\GLM\GLM\DETAIL\FUNC_PACKING.INL
C:\USERS\JOHAN\DEV\GLM\GLM\DETAIL\TYPE_HALF.HPP
C:\USERS\JOHAN\DEV\GLM\GLM\DETAIL\TYPE_HALF.INL
C:\USERS\JOHAN\DEV\GLM\GLM\GEOMETRIC.HPP
C:\USERS\JOHAN\DEV\GLM\GLM\DETAIL\FUNC_GEOMETRIC.HPP
C:\USERS\JOHAN\DEV\GLM\GLM\DETAIL\FUNC_GEOMETRIC.INL
C:\USERS\JOHAN\DEV\GLM\GLM\MATRIX.HPP
C:\USERS\JOHAN\DEV\GLM\GLM\DETAIL\FUNC_MATRIX.HPP
C:\USERS\JOHAN\DEV\GLM\GLM\DETAIL\FUNC_MATRIX.INL
C:\USERS\JOHAN\DEV\GLM\GLM\VECTOR_RELATIONAL.HPP
C:\USERS\JOHAN\DEV\GLM\GLM\INTEGER.HPP
C:\USERS\JOHAN\DEV\GLM\GLM\DETAIL\FUNC_INTEGER.HPP
C:\USERS\JOHAN\DEV\GLM\GLM\DETAIL\FUNC_INTEGER.INL
C:\USERS\JOHAN\DEV\GLM\GLM\GTC\CONSTANTS.HPP
C:\USERS\JOHAN\DEV\GLM\GLM\GTC\CONSTANTS.INL
C:\USERS\JOHAN\DEV\GLM\GLM\GTC\MATRIX_TRANSFORM.HPP
C:\USERS\JOHAN\DEV\GLM\GLM\GTC\MATRIX_TRANSFORM.INL
C:\USERS\JOHAN\DEV\GLM\GLM\GTC\TYPE_PTR.HPP
C:\USERS\JOHAN\DEV\GLM\GLM\GTC\QUATERNION.HPP
C:\USERS\JOHAN\DEV\GLM\GLM\GTC\QUATERNION.INL
C:\PROGRAM FILES (X86)\MICROSOFT VISUAL STUDIO 14.0\VC\INCLUDE\CSTRING
C:\USERS\JOHAN\DEV\GLM\GLM\GTC\TYPE_PTR.INL
